ID,20200113,20200114,20200115,20200116,20200117,20200118,20200119,20200120,20200121,20200122,20200123,20200124,20200125,20200126,20200127,20200128,20200129,20200130,20200131,20200201,2020022,20200203,20200204,20200206,20200207,20200211,20200213,20200219,20200220,20200221,20200222,20200223,20200224,20200225,20200226,20200227,20200228,20200229,20200301,20200302,20200303,20200304,20200305,20200306,20200307,20200308,20200309,20200310,20200311,20200312,20200313,20200314,20200315,20200316,20200317,20200318,20200319,20200320,20200321,20200322,20200323,20200324,20200325,20200326,20200327,20200328,20200329,20200330,20200331,20200401,20200402,20200403,20200404,20200405,20200406,20200407,20200408,20200409,20200410,20200411,20200412,20200413,20200414,20200415,20200416,20200422,20200423,20200424,20200428,20200503,20200503,20200507,20200513,20200514,20200515,20200516
C1,Hà Nội,Hà Nội,Hà Nội,Nha Trang,Nha Trang,Nha Trang,Nha Trang,Long An,Long An ,,,,,,,,,,,,,,,,,,,,,,,,,,,,,,,,,,,,,,,,,,,,,,,,,,,,,,,,,,,,,,,,,,,,,,,,,,,,,,,,,,,,,,,
C1.1,Hà Nội,Hà Nội,Hà Nội,Nha Trang,Nha Trang,Nha Trang,Nha Trang,Long An,Long An ,,,,,,,,,,,,,,,,,,,,,,,,,,,,,,,,,,,,,,,,,,,,,,,,,,,,,,,,,,,,,,,,,,,,,,,,,,,,,,,,,,,,,,,
C2,,,,,Nha Trang,Nha Trang,Nha Trang,Long An ,Long An ,,,,,,,,,,,,,,,,,,,,,,,,,,,,,,,,,,,,,,,,,,,,,,,,,,,,,,,,,,,,,,,,,,,,,,,,,,,,,,,,,,,,,,,
C3,,,,,Sân bay Nội Bài | Vĩnh Phúc - Bình Sơn - Thiện Kế,Vĩnh Phúc - Bình Sơn - Thiện Kế,Vĩnh Phúc - Bình Sơn - Thiện Kế,Vĩnh Phúc - Bình Sơn - Thiện Kế,Vĩnh Phúc - Bình Sơn - Thiện Kế,Vĩnh Phúc - Bình Sơn - Thiện Kế,Bến xe Giáp Bát | Thanh Hóa - Yên Định,,,,,,,,,,,,,,,,,,,,,,,,,,,,,,,,,,,,,,,,,,,,,,,,,,,,,,,,,,,,,,,,,,,,,,,,,,,,,,,,,,,,,
C4,,,,,Sân bay Nội Bài | Vĩnh Phúc - Tam Dương,Vĩnh Phúc - Tam Dương,Vĩnh Phúc - Tam Dương,Vĩnh Phúc - Tam Dương,Vĩnh Phúc - Tam Dương,Vĩnh Phúc - Tam Dương,Vĩnh Phúc - Tam Dương,,,,,,,,,,,,,,,,,,,,,,,,,,,,,,,,,,,,,,,,,,,,,,,,,,,,,,,,,,,,,,,,,,,,,,,,,,,,,,,,,,,,,
C5,,,,,Sân bay Nội Bài | Vĩnh Phúc – Bình Xuyên ,Vĩnh Phúc - Bình Xuyên,Vĩnh Phúc - Bình Xuyên,Vĩnh Phúc - Bình Xuyên,Vĩnh Phúc - Bình Xuyên,Vĩnh Phúc - Bình Xuyên,Vĩnh Phúc - Bình Xuyên,Vĩnh Phúc - Bình Xuyên,Vĩnh Phúc - Bình Xuyên,,,,,,,,,,,,,,,,,,,,,,,,,,,,,,,,,,,,,,,,,,,,,,,,,,,,,,,,,,,,,,,,,,,,,,,,,,,,,,,,,,,
C6,,,,Nha Trang,,,,,,,,,,,,,,,,,,,,,,,,,,,,,,,,,,,,,,,,,,,,,,,,,,,,,,,,,,,,,,,,,,,,,,,,,,,,,,,,,,,,,,,,,,,,
C7,,,,Sân bay Tân Sơn Nhất | HCM - Quận 3 - Phường 5,HCM - Quận 3 - Phường 5,HCM - Quận 3 - Phường 5,HCM - Quận 3 - Phường 5,HCM - Quận 3 - Phường 5,HCM - Quận 3 - Phường 5,HCM - Quận 3 - Phường 5,HCM - Quận 3 - Phường 5,HCM - Quận 3 - Phường 5,HCM - Quận 3 - Phường 5,HCM - Quận 3 - Phường 5,HCM - Quận 3 - Phường 5,HCM - Quận 3 - Phường 5,HCM - Quận 3 - Phường 5,HCM - Quận 3 - Phường 5,HCM - Quận 3 - Phường 5,,,,,,,,,,,,,,,,,,,,,,,,,,,,,,,,,,,,,,,,,,,,,,,,,,,,,,,,,,,,,,,,,,,,,,,,,,,,,
C8,,,,,Sân bay Nội Bài | Vĩnh Phúc - Bình Xuyên- Thiện Kế- KCN Thăng Long,,,,,,,,,,,,,,Hà Nội- Đông Anh- Thôn Bầu- BV Bệnh Nhiệt đới Trung ương,Hà Nội- Đông Anh- Thôn Bầu- BV Bệnh Nhiệt đới Trung ương,Hà Nội- Đông Anh- Thôn Bầu- BV Bệnh Nhiệt đới Trung ương,Hà Nội- Đông Anh- Thôn Bầu- BV Bệnh Nhiệt đới Trung ương,,,,,,,,,,,,,,,,,,,,,,,,,,,,,,,,,,,,,,,,,,,,,,,,,,,,,,,,,,,,,,,,,,,,,,,,,,
C9,,,,,Sân bay Nội Bài | Vĩnh Phúc – Bình Xuyên – Thiện Kế – Công ty TNHH Nihon Plast Vietnam | Vĩnh Phúc – Tam Đảo – Minh Quang,,,,,,,,,,,,,Hà Nôi – Đông Anh - Bệnh Viện Bệnh nhiệt đới Trung ương,,,,,,,,,,,,,,,,,,,,,,,,,,,,,,,,,,,,,,,,,,,,,,,,,,,,,,,,,,,,,,,,,,,,,,,,,,,,,,
C10,,,,,,,,,,,,,,,,,,,,,,,Hà Nội – Bệnh viện Bệnh nhiệt đới Trung ương,,,,,,,,,,,,,,,,,,,,,,,,,,,,,,,,,,,,,,,,,,,,,,,,,,,,,,,,,,,,,,,,,,,,,,,,,
C11,,,,,,,,,,,,,,,,,,Vĩnh Phúc – Huyện Bình Xuyên – Trung tâm y tế huyện Bình Xuyên,,,,,,,,,,,,,,,,,,,,,,,,,,,,,,,,,,,,,,,,,,,,,,,,,,,,,,,,,,,,,,,,,,,,,,,,,,,,,,
C12,,,,,,,,,,,,,,,,,,Vĩnh Phúc - Bình Xuyên – Trường THPT Võ Thị Sáu,,,,,,Vĩnh Phúc – Bình Xuyên – Trung tâm y tế huyện Bình Xuyên,,,,,,,,,,,,,,,,,,,,,,,,,,,,,,,,,,,,,,,,,,,,,,,,,,,,,,,,,,,,,,,,,,,,,,,,
C13,,,,,Hà Nội – Sóc Sơn – Phú Minh - Sân bay Nội Bài | Vĩnh Phúc – Bình Xuyên – Thiệt Kế – Công ty Nihon Plast Việt Nam,,,,,,,,,,,,,,,,,,,,Vĩnh Phúc – Tam Đảo – Hồ Sơn – Trung tam Y Tế Huyện Tam Đảo,,,,,,,,,,,,,,,,,,,,,,,,,,,,,,,,,,,,,,,,,,,,,,,,,,,,,,,,,,,,,,,,,,,,,,,
C14,,,,,,,,,,,,,,,,Vĩnh Phúc – Bình Xuyên – Sơn Lôi,,,,,,,Vĩnh Phúc – Bình Xuyên – Minh Quang – Phòng khám đa khoa khu vực Quang Hà,,,,,,,,,,,,,,,,,,,,,,,,,,,,,,,,,,,,,,,,,,,,,,,,,,,,,,,,,,,,,,,,,,,,,,,,,
C15,,,,,,,,,,,,,,,,Vĩnh Phúc – Bình Xuyên – Sơn Lôi,,,,,,,,Vĩnh Phúc – Bình Xuyên – Minh Quang – Phòng khám đa khoa khu vực Quang Hà,,,,,,,,,,,,,,,,,,,,,,,,,,,,,,,,,,,,,,,,,,,,,,,,,,,,,,,,,,,,,,,,,,,,,,,,
C16,,,,,,,,,,,,,,,,,,,,,,,,,,,Vĩnh Phúc – Bình Xuyên – Minh Quang – Phòng Khám Đa Khoa Quang Hà,,,,,,,,,,,,,,,,,,,,,,,,,,,,,,,,,,,,,,,,,,,,,,,,,,,,,,,,,,,,,,,,,,,,,
C17,,,,,,,,,,,,,,,,,,,,,,,,,,,,,,,,,,,,,,,,Hà Nội – Sóc Sơn – Sân bay Nội Bài | Hà Nội - Ba Đình – 125 Trúc Bạch,Hà Nội - Ba Đình - Trúc Bạch,Hà Nội - Ba Đình - Trúc Bạch,Hà Nội – Ba Đình– Trúc Bạch – Bệnh viện Hồng Ngọc | Hà Nội – Đống Đa – Kim Chung – Bệnh viện Bệnh Nhiệt đới Trung ương cơ sở 2,,,,,,,,,,,,,,,,,,,,,,,,,,,,,,,,,,,,,,,,,,,,,,,,,,,,,
C17.1,,,,,,,,,,,,,,,,,,,,,,,,,,,,,,,,,,,,,,,,,,,,,Hà Nội – Ba Đình – Trúc Bạch | Hải Phòng – Thủy Nguyên – Trạm Y tế xă Phù Ninh | Hải Phòng – Cát Dài – BV Hữu Nghị Việt Tiệp,,,,,,,,,,,,,,,,,,,,,,,,,,,,,,,,,,,,,,,,,,,,,,,,,,,
C17.2,,,,,,,,,,,,,,,,,,,,,,,,,,,,,,,,,,,,,,,,,,,,,,,,,,,,,,,,,,,,,,,,,,,,,,,,,,,,,,,,,,,,,,,,,,,,,,,,
C17.3,,,,,,,,,,,,,,,,,,,,,,,,,,,,,,,,,,,,,,,,,,,,,,,,,,,,,,,,,,,,,,,,,,,,,,,,,,,,,,,,,,,,,,,,,,,,,,,,
C17.4,,,,,,,,,,,,,,,,,,,,,,,,,,,,,,,,,,,,,,,,,,,,,,,,,,,,,,,,,,,,,,,,,,,,,,,,,,,,,,,,,,,,,,,,,,,,,,,,
C17.5,,,,,,,,,,,,,,,,,,,,,,,,,,,,,,,,,,,,,,,,,,,,,,,,,,,,,,,,,,,,,,,,,,,,,,,,,,,,,,,,,,,,,,,,,,,,,,,,
C17.6,,,,,,,,,,,,,,,,,,,,,,,,,,,,,,,,,,,,,,,,,,,,,,,,,,,,,,,,,,,,,,,,,,,,,,,,,,,,,,,,,,,,,,,,,,,,,,,,
C17.7,,,,,,,,,,,,,,,,,,,,,,,,,,,,,,,,,,,,,,,,,,,,,,,,,,,,,,,,,,,,,,,,,,,,,,,,,,,,,,,,,,,,,,,,,,,,,,,,
C17.8,,,,,,,,,,,,,,,,,,,,,,,,,,,,,,,,,,,,,,,,,,,,,Hà Nội – Ba Đình – Trúc Bạch | Hải Phòng – Thủy Nguyên – Trạm Y tế xă Phù Ninh | Hải Phòng – Cát Dài – BV Hữu Nghị Việt Tiệp,,,,,,,,,,,,,,,,,,,,,,,,,,,,,,,,,,,,,,,,,,,,,,,,,,,
C17.9,,,,,,,,,,,,,,,,,,,,,,,,,,,,,,,,,,,,,,,,,,,Hà Nội - Hoàng Mai,,,,,,,,,,,,,,,,,,,,,,,,,,,,,,,,,,,,,,,,,,,,,,,,,,,,,
C17.10,,,,,,,,,,,,,,,,,,,,,,,,,,,,,,,,,,,,,,,,,,,Hà Nội - Hoàng Mai,,,,,,,,,,,,,,,,,,,,,,,,,,,,,,,,,,,,,,,,,,,,,,,,,,,,,
C17.11,,,,,,,,,,,,,,,,,,,,,,,,,,,,,,,,,,,,,,,,,,,Hà Nội - Hoàng Mai,,,,,,,,,,,,,,,,,,,,,,,,,,,,,,,,,,,,,,,,,,,,,,,,,,,,,
C17.12,,,,,,,,,,,,,,,,,,,,,,,,,,,,,,,,,,,,,,,,,,,Hà Nội - Hoàng Mai,,,,,,,,,,,,,,,,,,,,,,,,,,,,,,,,,,,,,,,,,,,,,,,,,,,,,
C17.13,,,,,,,,,,,,,,,,,,,,,,,,,,,,,,,,,,,,,,,,,,,Hà Nội - Ba Đình,,,,,,,,,,,,,,,,,,,,,,,,,,,,,,,,,,,,,,,,,,,,,,,,,,,,,
C17.14,,,,,,,,,,,,,,,,,,,,,,,,,,,,,,,,,,,,,,,,,,,Hà Nội - Ba Đình,,,,,,,,,,,,,,,,,,,,,,,,,,,,,,,,,,,,,,,,,,,,,,,,,,,,,
C17.15,,,,,,,,,,,,,,,,,,,,,,,,,,,,,,,,,,,,,,,,,,,Hà Nội - Ba Đình,,,,,,,,,,,,,,,,,,,,,,,,,,,,,,,,,,,,,,,,,,,,,,,,,,,,,
C17.16,,,,,,,,,,,,,,,,,,,,,,,,,,,,,,,,,,,,,,,,,,,Hà Nội - Đống Đa,,,,,,,,,,,,,,,,,,,,,,,,,,,,,,,,,,,,,,,,,,,,,,,,,,,,,
C17.17,,,,,,,,,,,,,,,,,,,,,,,,,,,,,,,,,,,,,,,,,,,,,,,,,,,,,,,,,,,,,,,,,,,,,,,,,,,,,,,,,,,,,,,,,,,,,,,,
C17.18,,,,,,,,,,,,,,,,,,,,,,,,,,,,,,,,,,,,,,,,,,,,,,,,,,,,,,,,,,,,,,,,,,,,,,,,,,,,,,,,,,,,,,,,,,,,,,,,
C17.19,,,,,,,,,,,,,,,,,,,,,,,,,,,,,,,,,,,,,,,,,,,,,,,,,,,,,,,,,,,,,,,,,,,,,,,,,,,,,,,,,,,,,,,,,,,,,,,,
C17.20,,,,,,,,,,,,,,,,,,,,,,,,,,,,,,,,,,,,,,,,,,,,,,,,,,,,,,,,,,,,,,,,,,,,,,,,,,,,,,,,,,,,,,,,,,,,,,,,
C17.21,,,,,,,,,,,,,,,,,,,,,,,,,,,,,,,,,,,,,,,,,,,,,,,,,,,,,,,,,,,,,,,,,,,,,,,,,,,,,,,,,,,,,,,,,,,,,,,,
C17.22,,,,,,,,,,,,,,,,,,,,,,,,,,,,,,,,,,,,,,,,,,,,,,,,,,,,,,,,,,,,,,,,,,,,,,,,,,,,,,,,,,,,,,,,,,,,,,,,
C17.23,,,,,,,,,,,,,,,,,,,,,,,,,,,,,,,,,,,,,,,,,,,,,,,,,,,,,,,,,,,,,,,,,,,,,,,,,,,,,,,,,,,,,,,,,,,,,,,,
C17.24,,,,,,,,,,,,,,,,,,,,,,,,,,,,,,,,,,,,,,,,,,,,,,,,,,,,,,,,,,,,,,,,,,,,,,,,,,,,,,,,,,,,,,,,,,,,,,,,
C17.25,,,,,,,,,,,,,,,,,,,,,,,,,,,,,,,,,,,,,,,,,,,,,,,,,,,,,,,,,,,,,,,,,,,,,,,,,,,,,,,,,,,,,,,,,,,,,,,,
C17.26,,,,,,,,,,,,,,,,,,,,,,,,,,,,,,,,,,,,,,,,,,,Hà Nội - Hoàn Kiếm,,,,,,,,,,,,,,,,,,,,,,,,,,,,,,,,,,,,,,,,,,,,,,,,,,,,,
C17.27,,,,,,,,,,,,,,,,,,,,,,,,,,,,,,,,,,,,,,,,,,,,,,,,,,,,,,,,,,,,,,,,,,,,,,,,,,,,,,,,,,,,,,,,,,,,,,,,
C17.28,,,,,,,,,,,,,,,,,,,,,,,,,,,,,,,,,,,,,,,,,,,,,,,,,,,,,,,,,,,,,,,,,,,,,,,,,,,,,,,,,,,,,,,,,,,,,,,,
C17.29,,,,,,,,,,,,,,,,,,,,,,,,,,,,,,,,,,,,,,,,Quảng Ninh - Phường Việt Hưng | Bãi Cháy,,,,"Nhà Hàng Avocado, Bãi Cháy",,,,,,,,,,,,,,,,,,,,,,,,,,,,,,,,,,,,,,,,,,,,,,,,,,,,
C17.30,,,,,,,,,,,,,,,,,,,,,,,,,,,,,,,,,,,,,,,,Quảng Ninh - Hạ Long,,,Cảng Tuần Châu,"Hang Sửng Sốt | Khách sạn Thái Sơn, Bãi Cháy",,,,,,,,,,,,,,,,,,,,,,,,,,,,,,,,,,,,,,,,,,,,,,,,,,,,
C17.31,,,,,,,,,,,,,,,,,,,,,,,,,,,,,,,,,,,,,,,,Quảng Ninh - Hạ Long,,,Cảng Tuần Châu,"Hang Sửng Sốt | Khách sạn Thái Sơn, Bãi Cháy",,,,,,,,,,,,,,,,,,,,,,,,,,,,,,,,,,,,,,,,,,,,,,,,,,,,
C17.32,,,,,,,,,,,,,,,,,,,,,,,,,,,,,,,,,,,,,,,,Ninh Bình,,,,Quảng Ninh - Hạ Long - Cảng Vinashin,,,,,,,,,,,,,,,,,,,,,,,,,,,,,,,,,,,,,,,,,,,,,,,,,,,,
C17.33,,,,,,,,,,,,,,,,,,,,,,,,,,,,,,,,,,,,,,,,Phố cổ Hà Nội,,Lào Cai - Sa Pa,,,,,,,,,,,,,,,,,,,,,,,,,,,,,,,,,,,,,,,,,,,,,,,,,,,,,,
C17.34,,,,,,,,,,,,,,,,,,,,,,,,,,,,,,,,,,,,,,,,Phố cổ Hà Nội,,Lào Cai - Sa Pa,,,,,,,,,,,,,,,,,,,,,,,,,,,,,,,,,,,,,,,,,,,,,,,,,,,,,,
C17.35,,,,,,,,,,,,,,,,,,,,,,,,,,,,,,,,,,,,,,,,Đà Nẵng,Đà Nẵng - Bà Nà,,Quảng Nam - Hội An,,,,,,,,,,,,,,,,,,,,,,,,,,,,,,,,,,,,,,,,,,,,,,,,,,,,,
C17.36,,,,,,,,,,,,,,,,,,,,,,,,,,,,,,,,,,,,,,,,Đà Nẵng,Đà Nẵng - Bà Nà,,Quảng Nam - Hội An,,,,,,,,,,,,,,,,,,,,,,,,,,,,,,,,,,,,,,,,,,,,,,,,,,,,,
C17.37,,,,,,,,,,,,,,,,,,,,,,,,,,,,,,,,,,,,,,,,Huế,,,,,,,,,,,,,,,,,,,,,,,,,,,,,,,,,,,,,,,,,,,,,,,,,,,,,,,,
C17.38,,,,,,,,,,,,,,,,,,,,,,,,,,,,,,,,,,,,,,,,Huế,,,,,,,,,,,,,,,,,,,,,,,,,,,,,,,,,,,,,,,,,,,,,,,,,,,,,,,,
C17.39,,,,,,,,,,,,,,,,,,,,,,,,,,,,,,,,,,,,,,,,,Quảng Nam - Hội An,,,,TPHCM,,,,,,,,,,,,,,,,,,,,,,,,,,,,,,,,,,,,,,,,,,,,,,,,,,,
C17.40,,,,,,,,,,,,,,,,,,,,,,,,,,,,,,,,,,,,,,,,,Quảng Nam - Hội An,,,,TPHCM,,,,,,,,,,,,,,,,,,,,,,,,,,,,,,,,,,,,,,,,,,,,,,,,,,,
C17.41,,,,,,,,,,,,,,,,,,,,,,,,,,,,,,,,,,,,,,,,,,,,,,,,,,,,,,,,,,,,,,,,,,,,,,,,,,,,,,,,,,,,,,,,,,,,,,,,
C17.42,,,,,,,,,,,,,,,,,,,,,,,,,,,,,,,,,,,,,,,,,,,,,,,,,,,,,,,,,,,,,,,,,,,,,,,,,,,,,,,,,,,,,,,,,,,,,,,,
C17.43,,,,,,,,,,,,,,,,,,,,,,,,,,,,,,,,,,,,,,,,,,,,,,,,,,,,,,,,,,,,,,,,,,,,,,,,,,,,,,,,,,,,,,,,,,,,,,,,
C17.44,,,,,,,,,,,,,,,,,,,,,,,,,,,,,,,,,,,,,,,,,,,,,,,,,,,,,,,,,,,,,,,,,,,,,,,,,,,,,,,,,,,,,,,,,,,,,,,,
C17.45,,,,,,,,,,,,,,,,,,,,,,,,,,,,,,,,,,,,,,,,,,,,,,,,,,,,,,,,,,,,,,,,,,,,,,,,,,,,,,,,,,,,,,,,,,,,,,,,
C17.46,,,,,,,,,,,,,,,,,,,,,,,,,,,,,,,,,,,,,,,,,,,,,,,,,,,,,,,,,,,,,,,,,,,,,,,,,,,,,,,,,,,,,,,,,,,,,,,,
C18,,,,,,,,,,,,,,,,,,,,,,,,,,,,,,,,,,,,,,,,,,Ninh Bình - Tam Điệp - Tân Bình,,,,,,,,,,,,,,,,,,,,,,,,,,,,,,,,,,,,,,,,,,,,,,,,,,,,,,
C19,,,,,,,,,,,,,,,,,,,,,,,,,,,,,,,,,,,,,,,, Hà Nội - Ba Đình - Trúc Bạch, Hà Nội - Ba Đình - Trúc Bạch, Hà Nội - Ba Đình - Trúc Bạch, Hà Nội - Ba Đình - Trúc Bạch,,Hà Nội - Đống Đa - Phương Đình- BV Nhiệt đới Trung ương cơ sở 2,,,,,,,,,,,,,,,,,,,,,,,,,,,,,,,,,,,,,,,,,,,,,,,,,,,
C20,,,,,,,,,,,,,,,,,,,,,,,,,,,,,,,,,,,,,,,,,,,Hà Nội - Bắc Từ Liêm | Hà Nội - Cầu Giấy | Hải Phòng - Thanh Sơn,,,,,,,,,,,,,,,,,,,,,,,,,,,,,,,,,,,,,,,,,,,,,,,,,,,,,
C20.1,,,,,,,,,,,,,,,,,,,,,,,,,,,,,,,,,,,,,,,,,,,,,Hải Phòng - Thanh Sơn | Hải Phòng - Thanh Thủy,,,,,,,,,,,,,,,,,,,,,,,,,,,,,,,,,,,,,,,,,,,,,,,,,,,
C21,,,,,,,,,,,,,,,,,,,,,,,,,,,,,,,,,,,,,,,,Hà Nội - Ba Đình - Quán Thánh | Hà Nội - Ba Đình - Trúc Bạch | Hà Nội - Ba Đình - Liễu Giai,Hà Nội - Ba Đình - Quán Thánh | Hà Nội - Ba Đình - Trúc Bạch | Hà Nội - Ba Đình - Liễu Giai,Hà Nội - Ba Đình - Quán Thánh | Hà Nội - Ba Đình - Ngọc Khánh,Hà Nội - Ba Đình - Liễu Giai,,,,,,,,,,,,,,,,,,,,,,,,,,,,,,,,,,,,,,,,,,,,,,,,,,,,,
C21.1,,,,,,,,,,,,,,,,,,,,,,,,,,,,,,,,,,,,,,,,,,,,Hà Nội - Ba Đình,Sân bay Nội Bài,Gần Bệnh Viện Nhiệt Đới TW,ĐăkLăk - Buôn Mê Thuột - Tự An,,,,,,,,,,,,,,,,,,,,,,,,,,,,,,,,,,,,,,,,,,,,,,,,,
C22,,,,,,,,,,,,,,,,,,,,,,,,,,,,,,,,,,,,,,,,,,,,,,,,,,,,,,,,,,,,,,,,,,,,,,,,,,,,,,,,,,,,,,,,,,,,,,,,
C23,,,,,,,,,,,,,,,,,,,,,,,,,,,,,,,,,,,,,,,,,,,,,,,,,,,,,,,,,,,,,,,,,,,,,,,,,,,,,,,,,,,,,,,,,,,,,,,,
C24,,,,,,,,,,,,,,,,,,,,,,,,,,,,,,,,,,,,,,,,Sân bay Nội Bài,Hà Nội,Lào Cai – Mường Thanh| Lào Cai – Sapa – Thanh Bình – Khu nghỉ dưỡng Topas Ecolodge Sa Pa,Lào Cai – Sapa – Thanh Bình – Khu nghỉ dưỡng Topas Ecolodge Sa Pa,Lào Cai – Sapa – Thanh Bình – Khu nghỉ dưỡng Topas Ecolodge Sa Pa,Lào Cai – BV Đa Khoa Lào Cai,,,,,,,,,,,,,,,,,,,,,,,,,,,,,,,,,,,,,,,,,,,,,,,,,,,
C25,,,,,,,,,,,,,,,,,,,,,,,,,,,,,,,,,,,,,,,,Sân bay Nội Bài,Hà Nội,Lào Cai – Mường Thanh| Lào Cai – Sapa – Thanh Bình – Khu nghỉ dưỡng Topas Ecolodge Sa Pa,Lào Cai – Sapa – Thanh Bình – Khu nghỉ dưỡng Topas Ecolodge Sa Pa,Lào Cai – Sapa – Thanh Bình – Khu nghỉ dưỡng Topas Ecolodge Sa Pa,Lào Cai – BV Đa Khoa Lào Cai,,,,,,,,,,,,,,,,,,,,,,,,,,,,,,,,,,,,,,,,,,,,,,,,,,,
C26,,,,,,,,,,,,,,,,,,,,,,,,,,,,,,,,,,,,,,,,Sân bay Nội Bài| Quảng Ninh – Hạ Long – Khách sạn WyndHam,Quảng Ninh – Hạ Long – Bãi Cháy – Cafe Eco| Hạ Long – Bãi Cháy – Nhà hàng Avacado| Hạ Long – Bãi Cháy – Cafe Bamboo,Quảng Ninh- Hạ Long – Bãi Cháy,Quảng Ninh - Hạ Long – Vịnh Hạ Long – Tàu QN 5626,Quảng Ninh – BV Đa Khoa Quảng Ninh,Quảng Ninh – BV Đa Khoa Quảng Ninh,Hà Nội – Đông Anh – BV Nhiệt Đới Trung Ương ,,,,,,,,,,,,,,,,,,,,,,,,,,,,,,,,,,,,,,,,,,,,,,,,,,
C27,,,,,,,,,,,,,,,,,,,,,,,,,,,,,,,,,,,,,,,,Hà Nội – Sân bay Nội Bài,,,Quảng Ninh – Hạ Long - Cảng tàu khách Quốc tế Tuần Châu | Quảng Ninh – Hạ Long – hang Tiên Ông | Quảng Ninh – Hạ Long – làng chài Cửa Vạn,Quảng Ninh – Hạ Long – hang Sửng Sốt | Quảng Ninh – Hạ Long – hang Luồn,Quảng Ninh – Hạ Long - Cảng tàu khách Quốc tế Tuần Châu | Quảng Ninh – Hạ Long – Bãi Cháy – Khách sạn Thái Sơn,,,,,,,,,,,,,,,,,,,,,,,,,,,,,,,,,,,,,,,,,,,,,,,,,,,
C28,,,,,,,,,,,,,,,,,,,,,,,,,,,,,,,,,,,,,,,,Hà Nội – Sân bay Nội Bài,,,Quảng Ninh – Hạ Long - Cảng tàu khách Quốc tế Tuần Châu | Quảng Ninh – Hạ Long – hang Tiên Ông | Quảng Ninh – Hạ Long – làng chài Cửa Vạn,Quảng Ninh – Hạ Long – hang Sửng Sốt | Quảng Ninh – Hạ Long – hang Luồn,Quảng Ninh – Hạ Long - Cảng tàu khách Quốc tế Tuần Châu | Quảng Ninh – Hạ Long – Bãi Cháy – Khách sạn Thái Sơn,,,,,,,,,,,,,,,,,,,,,,,,,,,,,,,,,,,,,,,,,,,,,,,,,,,
C29,,,,,,,,,,,,,,,,,,,,,,,,,,,,,,,,,,,,,,,,Hà Nội – Sân bay Nội Bài,,,,Quảng Ninh – Hạ Long -  Hòn Gai - Văn phòng du thuyền Athena | Quảng Ninh – Hạ Long – Cảng Hòn Gai Vinashin | Quảng Ninh – Hạ Long - làng chài Vung Viêng,Quảng Ninh – Hạ Long – đảo Cống Đỏ | Quảng Ninh – Hạ Long – Cảng Hòn Gai Vinashin  | Quảng Ninh – Hạ Long – Bãi Cháy – Khách sạn Thái Sơn,,,,,,,,,,,,,,,,,,,,,,,,,,,,,,,,,,,,,,,,,,,,,,,,,,,
C30,,,,,,,,,,,,,,,,,,,,,,,,,,,,,,,,,,,,,,,,Sân bay Nội Bài,,,Hải Phòng – Cát Bà - Vườn Quốc gia Cát Bà ,Huế - Khách sạn Moonlight|Huế- Phong Điền- Hương Trà- BV Trung ương Huế,,,,,,,,,,,,,,,,,,,,,,,,,,,,,,,,,,,,,,,,,,,,,,,,,,,,
C31,,,,,,,,,,,,,,,,,,,,,,,,,,,,,,,,,,,,,,,,Sân bay Nội Bài,,Quảng Ninh- Hạ Long ,Đà Nẵng- Hải Châu- Hoà Thuận Tây- SB Qốc tế Đà Nẵng,Quảng Nam- Hội An ,,,,,,,,,,,,,,,,,,,,,,,,,,,,,,,,,,,,,,,,,,,,,,,,,,,,
C32,,,,,,,,,,,,,,,,,,,,,,,,,,,,,,,,,,,,,,,,,,,,,,,Sân Bay Tân Sơn Nhất | Hồ Chí Minh- Củ Chi- Nhuận  Đức| Hồ Chí Minh- Quận 5- Phường 1- BV Bệnh Nhiệt Đới TPHCM,,,,,,,,,,,,,,,,,,,,,,,,,,,,,,,,,,,,,,,,,,,,,,,,,
C33,,,,,,,,,,,,,,,,,,,,,,,,,,,,,,,,,,,,,,,,SB Nội Bài|Hà Nội – Hoàn Kiếm – Phan Chu Trinh –  KS Hilton Opera Hà Nội| Hà Nội – Hoàn Kiếm – Phan Chu Trinh – Nhà hát lớn Hà Nội,Hà Nội – Ba Đình – Đội Cấn – Chùa Một Cột|Hà Nội – Đống Đa – Văn Miếu - Văn Miếu Quốc Tử Giám | Khu tưởng niệm HCM |Hà Nội – Hoàn Kiếm – Hàng Trống – Trung tâm múa rồi nước Bông Sen,Hà Nội - Phố cổ Hà Nội| Hà Nội – Trần Hưng Đạo,Quảng Ninh - Hạ Long,Sân bay Nội Bài | Đà Nẵng| Quảng Nam – Hội An – Cẩm An – khách sạn boutique hội an,,,,,,,,,,,,,,,,,,,,,,,,,,,,,,,,,,,,,,,,,,,,,,,,,,,,
C34,,,,,,,,,,,,,,,,,,,,,,,,,,,,,,,,,,,,,,,,SB Tân Sơn Nhất| TPHCM – Quận 1 – Bến Nghé – Phạm Ngọc Thạch - Công ty TNHH TOTO| Long Khánh – Đồng Nai| Bình Thuận - Phan Thiết,Bình Thuận - Phan Thiết - Công ty TNHH TOTO,,,,,,Bình Thuận – Phan Thiết – Phú Tài - Bệnh Viện Đa Khoa Tỉnh Bình Thuận,,,,,,,,,,,,,,,,,,,,,,,,,,,,,,,,,,,,,,,,,,,,,,,,,
C34.1,,,,,,,,,,,,,,,,,,,,,,,,,,,,,,,,,,,,,,,,,,,,,,,,,Bình Thuận – Phan Thiết – Phú Tài – Bệnh viện đa khoa tỉnh Bình Thuận,,,,,,,,,,,,,,,,,,,,,,,,,,,,,,,,,,,,,,,,,,,,,,,
C34.2,,,,,,,,,,,,,,,,,,,,,,,,,,,,,,,,,,,,,,,,,,,,,,,,,Bình Thuận – Phan Thiết – Phú Tài – Bệnh viện đa khoa tỉnh Bình Thuận,,,,,,,,,,,,,,,,,,,,,,,,,,,,,,,,,,,,,,,,,,,,,,,
C34.3,,,,,,,,,,,,,,,,,,,,,,,,,,,,,,,,,,,,,,,,,,,,,,,,,Bình Thuận – Phan Thiết – Phú Tài – Bệnh viện đa khoa tỉnh Bình Thuận,,,,,,,,,,,,,,,,,,,,,,,,,,,,,,,,,,,,,,,,,,,,,,,
C34.4,,,,,,,,,,,,,,,,,,,,,,,,,,,,,,,,,,,,,,,,Sân bay TSN,,,Đăk Lăk - TP. Buôn Mê Thuột - Phường Thắng Lợi,UBND tỉnh Đăk Lăk,,,,TPHCM - Quận 1,,,,,,,,,,,,,,,,,,,,,,,,,,,,,,,,,,,,,,,,,,,,,,,,
C34.5,,,,,,,,,,,,,,,,,,,,,,,,,,,,,,,,,,,,,,,,,,,,,,,,,,Bình Thuận – Phan Thiết – Phú Tài – Bệnh viện Đa khoa Bình Thuận,,,,,,,,,,,,,,,,,,,,,,,,,,,,,,,,,,,,,,,,,,,,,,
C34.6,,,,,,,,,,,,,,,,,,,,,,,,,,,,,,,,,,,,,,,,,,,,,,,,,,Bình Thuận – Phan Thiết – Phú Tài – Bệnh viện Đa khoa Bình Thuận,,,,,,,,,,,,,,,,,,,,,,,,,,,,,,,,,,,,,,,,,,,,,,
C34.7,,,,,,,,,,,,,,,,,,,,,,,,,,,,,,,,,,,,,,,,,,,,,,,,,,Bình Thuận – Phan Thiết – Phú Tài – Bệnh viện Đa khoa Bình Thuận,,,,,,,,,,,,,,,,,,,,,,,,,,,,,,,,,,,,,,,,,,,,,,
C34.8,,,,,,,,,,,,,,,,,,,,,,,,,,,,,,,,,,,,,,,,,,,,,,,,,,,,,,,,,,,,,,,,,,,,,,,,,,,,,,,,,,,,,,,,,,,,,,,,
C34.9,,,,,,,,,,,,,,,,,,,,,,,,,,,,,,,,,,,,,,,,,,,,,,,,,,,,,,,,,,,,,,,,,,,,,,,,,,,,,,,,,,,,,,,,,,,,,,,,
C34.10,,,,,,,,,,,,,,,,,,,,,,,,,,,,,,,,,,,,,,,,,,,,,,,,,,,,,,,,,,,,,,,,,,,,,,,,,,,,,,,,,,,,,,,,,,,,,,,,
C34.11,,,,,,,,,,,,,,,,,,,,,,,,,,,,,,,,,,,,,,,,,,,,,,,,,,,,,,,,,,,,,,,,,,,,,,,,,,,,,,,,,,,,,,,,,,,,,,,,
C34.12,,,,,,,,,,,,,,,,,,,,,,,,,,,,,,,,,,,,,,,,,Bình Thuận - Phan Thiết,TP.Hồ Chí Minh,,,,,,TP.HCM – Quận Tân Bình – Phường 7,,TP.HCM – Củ Chi – xã Nhuận Đức – BV dã chiến Củ Chi,,,,,,,,,,,,,,,,,,,,,,,,,,,,,,,,,,,,,,,,,,,,,,
C34.13,,,,,,,,,,,,,,,,,,,,,,,,,,,,,,,,,,,,,,,,,Bình Thuận - Phan Thiết,HCM - quận 10 - phường 14,,,,,,,,,,,,,,,,,,,,,,,,,,,,,,,,,,,,,,,,,,,,,,,,,,,,,,
C34.14,,,,,,,,,,,,,,,,,,,,,,,,,,,,,,,,,,,,,,,,,,,,,,,,,,,,,,,,,,,,,,,,,,,,,,,,,,,,,,,,,,,,,,,,,,,,,,,,
C35,,,,,,,,,,,,,,,,,,,,,,,,,,,,,,,,,,,,,,,,,,,Đà Nẵng - Cẩm Lệ - Hoà Thọ Đông | Đà Nẵng - Thanh Khê - Hòa Khê,,Siêu thị Danavi Mart ,,,,Đà Nẵng – Hải Châu – Thạch Thang – Hải Phòng 124 Bệnh Viện Đà Nẵng ,,,,,,,,,,,,,,,,,,,,,,,,,,,,,,,,,,,,,,,,,,,,,,,
C36,,,,,,,,,,,,,,,,,,,,,,,,,,,,,,,,,,,,,,,,,,,,,,,,,Bình Thuận – Phan Thiết – Phú Tài – Bệnh viện đa khoa tỉnh Bình Thuận,,,,,,,,,,,,,,,,,,,,,,,,,,,,,,,,,,,,,,,,,,,,,,,
C37,,,,,,,,,,,,,,,,,,,,,,,,,,,,,,,,,,,,,,,,,,,,,,,,,Bình Thuận – Phan Thiết – Phú Tài – Bệnh viện đa khoa tỉnh Bình Thuận,,,,,,,,,,,,,,,,,,,,,,,,,,,,,,,,,,,,,,,,,,,,,,,
C38,,,,,,,,,,,,,,,,,,,,,,,,,,,,,,,,,,,,,,,,,,,,,,,,,Bình Thuận – Phan Thiết – Phú Tài – Bệnh viện đa khoa tỉnh Bình Thuận,,,,,,,,,,,,,,,,,,,,,,,,,,,,,,,,,,,,,,,,,,,,,,,
C39,,,,,,,,,,,,,,,,,,,,,,,,,,,,,,,,,,,,,,,,,,Ninh Bình,,Hà Nội - Phố Dịch Vọng | Hà Nội – Cầu Giấy – Mai Dịch,Hà Nội - Đường Thành | Ninh Bình,Hà Nội – Ba Đình – Điện Bàn – Bệnh viện đa khoa Xanh Pôn| Hà Nội – Đống Đa – Phương Mai – Bệnh viện Bệnh nhiệt đới Trung Ương cơ sở 2,,,,,,,,,,,,,,,,,,,,,,,,,,,,,,,,,,,,,,,,,,,,,,,,,,
C40,,,,,,,,,,,,,,,,,,,,,,,,,,,,,,,,,,,,,,,,,,,,,,,,,,Bình Thuận – Phan Thiết – Phú Tài – Bệnh viện Đa khoa Bình Thuận,,,,,,,,,,,,,,,,,,,,,,,,,,,,,,,,,,,,,,,,,,,,,,
C41,,,,,,,,,,,,,,,,,,,,,,,,,,,,,,,,,,,,,,,,,,,,,,,,,,Bình Thuận – Phan Thiết – Phú Tài – Bệnh viện Đa khoa Bình Thuận,,,,,,,,,,,,,,,,,,,,,,,,,,,,,,,,,,,,,,,,,,,,,,
C42,,,,,,,,,,,,,,,,,,,,,,,,,,,,,,,,,,,,,,,,,,,,,,,,,,Bình Thuận – Phan Thiết – Phú Tài – Bệnh viện Đa khoa Bình Thuận,,,,,,,,,,,,,,,,,,,,,,,,,,,,,,,,,,,,,,,,,,,,,,
C43,,,,,,,,,,,,,,,,,,,,,,,,,,,,,,,,,,,,,,,,,,,,,,,,,,Bình Thuận – Phan Thiết – Phú Tài – Bệnh viện Đa khoa Bình Thuận,,,,,,,,,,,,,,,,,,,,,,,,,,,,,,,,,,,,,,,,,,,,,,
C44,,,,,,,,,,,,,,,,,,,,,,,,,,,,,,,,,,,,,,,,,,,,,,,,,,,Bình Thuận – Hàm Thuận Bắc| Bình Thuận – Phan Thiết – Phú Tài – Bệnh viện đa khoa tỉnh Bình Thuận,,,,,,,,,,,,,,,,,,,,,,,,,,,,,,,,,,,,,,,,,,,,,
C45,,,,,,,,,,,,,,,,,,,,,,,,,,,,,,,,,,,,,,,,,Bình Thuận - Phan Thiết,TP.Hồ Chí Minh,,,,,,TP.HCM – Quận Tân Bình – Phường 7,,TP.HCM – Củ Chi – xã Nhuận Đức – BV dã chiến Củ Chi,,,,,,,,,,,,,,,,,,,,,,,,,,,,,,,,,,,,,,,,,,,,,,
C45.1,,,,,,,,,,,,,,,,,,,,,,,,,,,,,,,,,,,,,,,,,,,,,,,,Hà Nội - Long Biên,,,,,,,,,,,,,,,,,,,,,,,,,,,,,,,,,,,,,,,,,,,,,,,,
C45.2,,,,,,,,,,,,,,,,,,,,,,,,,,,,,,,,,,,,,,,,,,,,,,,,Hà Nội - Long Biên,,,,,,,,,,,,,,,,,,,,,,,,,,,,,,,,,,,,,,,,,,,,,,,,
C45.3,,,,,,,,,,,,,,,,,,,,,,,,,,,,,,,,,,,,,,,,,,,,,,,,Hà Nội - Long Biên,,,,,,,,,,,,,,,,,,,,,,,,,,,,,,,,,,,,,,,,,,,,,,,,
C45.4,,,,,,,,,,,,,,,,,,,,,,,,,,,,,,,,,,,,,,,,,,,,,,,,Hà Nội - Long Biên,,,,,,,,,,,,,,,,,,,,,,,,,,,,,,,,,,,,,,,,,,,,,,,,
C45.5,,,,,,,,,,,,,,,,,,,,,,,,,,,,,,,,,,,,,,,,,,,,,,,,Hà Nội - Long Biên,,,,,,,,,,,,,,,,,,,,,,,,,,,,,,,,,,,,,,,,,,,,,,,,
C46,,,,,,,,,,,,,,,,,,,,,,,,,,,,,,,,,,,,,,,,,,,,,,,Hà Nội – SB Nội Bài,Hà Nội – Long Biên,Hà Nội – Đống Đa – Phương Đình – BV nhiệt đới Trung ương cơ sở 2,,,,,,,,,,,,,,,,,,,,,,,,,,,,,,,,,,,,,,,,,,,,,,,
C47,,,,,,,,,,,,,,,,,,,,,,,,,,,,,,,,,,,,,,,,,Hà Nội – Đống Đa – Phương Đình – BV nhiệt đới Trung ương cơ sở 2,,,,,,,,,,,,,,,,,,,,,,,,,,,,,,,,,,,,,,,,,,,,,,,,,,,,,,,
C48,,,,,,,,,,,,,,,,,,,,,,,,,,,,,,,,,,,,,,,,,Bình Thuận - Phan Thiết,HCM - quận 10 - phường 14,,,,,,,,,,,,,,,,,,,,,,,,,,,,,,,,,,,,,,,,,,,,,,,,,,,,,,
C49,,,,,,,,,,,,,,,,,,,,,,,,,,,,,,,,,,,,,,,,Hà Nội,,,Hải Phòng,Huế - Khách sạn Moonlight,,,,,,,,,,,,,,,,,,,,,,,,,,,,,,,,,,,,,,,,,,,,,,,,,,,,
C50,,,,,,,,,,,,,,,,,,,,,,,,,,,,,,,,,,,,,,,,,,,,,,,,Sân bay Nội bài|Hà Nội - Ba Đình - Phường Giảng Võ|Hà Nội – Long Biên,Hà Nội - Ba Đình - Phường Giảng Võ|Hà Nội – Long Biên,Hà Nội - Ba Đình - Phường Giảng Võ,Hà Nội - Ba Đình - Phường Giảng Võ|Hà Nội – Đống Đa – Phương Đình – BV Nhiệt đới TƯ cơ sở 2,,,,,,,,,,,,,,,,,,,,,,,,,,,,,,,,,,,,,,,,,,,,,
C51,,,,,,,,,,,,,,,,,,,,,,,,,,,,,,,,,,,,,,,,,,,,,,,,,,,Sân Bay Nội Bài |Hà Nội – Đống Đa – Phương Đình – BV Nhiệt đới TƯ cơ sở 2,,,,,,,,,,,,,,,,,,,,,,,,,,,,,,,,,,,,,,,,,,,,,
C52,,,,,,,,,,,,,,,,,,,,,,,,,,,,,,,,,,,,,,,,,,,,,,,,Sân bay Nội bài|Quảng Ninh – Hạ Long – Hồng Hải,Quảng Ninh,Quảng Ninh,Quảng Ninh,,,,,,,,,,,,,,,,,,,,,,,,,,,,,,,,,,,,,,,,,,,,,
C53,,,,,,,,,,,,,,,,,,,,,,,,,,,,,,,,,,,,,,,,,,,,,,,,Sân Bay Tân Sơn Nhất|Hồ Chí Minh - Quận 1,Hồ Chí Minh - Quận 1,Tp Hồ Chí Minh - Quận 1,Hồ Chí Minh - Quận 1|Hồ Chí Minh – Quận 3 – P.7 – Bệnh viện Y học Cổ truyền TP.HCM|HCM – Quận 5 – P.1 – Bệnh Viện Nhiệt Đới TPHCM,,,,,,,,,,,,,,,,,,,,,,,,,,,,,,,,,,,,,,,,,,,,,
C54,,,,,,,,,,,,,,,,,,,,,,,,,,,,,,,,,,,,,,,,,,,,,,TPHCM,Kiên Giang - Phú Quốc - Khách sạn La Nube Residence,,,,TPHCM - Quận 1 |  TPHCM - Quận 4,Bệnh viện Nhiệt Đới TPHCM,,,,,,,,,,,,,,,,,,,,,,,,,,,,,,,,,,,,,,,,,,,,
C55,,,,,,,,,,,,,,,,,,,,,,,,,,,,,,,,,,,,,,,,,,,,,,,,,,,,Sân bay Nội Bài,,,,,,,,,,,,,,,,,,,,,,,,,,,,,,,,,,,,,,,,,,,,
C56,,,,,,,,,,,,,,,,,,,,,,,,,,,,,,,,,,,,,,,,,,,,,,,Hà Nội - Hoàn Kiếm - Phố Hàng Vôi,Lào Cai - Sapa - Khách sạn Mountain River Homestay Sapa,,,Hà Nội - Hoàn Kiếm - Phố Hàng Đào,,,,,,,,,,,,,,,,,,,,,,,,,,,,,,,,,,,,,,,,,,,,,
C57,,,,,,,,,,,,,,,,,,,,,,,,,,,,,,,,,,,,,,,,,,,,,,,Hà Nội - Ba Đình | Quảng Ninh - Hạ Long,Quảng Ninh – Hạ Long,Quảng Ninh – Hạ Long| Đà Nẵng | Quảng Nam - Hội An,Quảng Nam - Hội An - Cẩm Châu | Phố cổ Hội An,Quảng Nam - Hội An - Cẩm An| Hội An – Cửa Đại – Nhà khách hội Nông dân,Hội An – Cửa Đại – Nhà khách hội Nông dân,Quảng Nam ,,,,,,,,,,,,,,,,,,,,,,,,,,,,,,,,,,,,,,,,,,,
C58,,,,,,,,,,,,,,,,,,,,,,,,,,,,,,,,,,,,,,,,,,,,,,,,,,,,,Sân bay Nội Bài| Hà Nội – Đông Anh – BV Nhiệt Đới Trung Ương,,,,,,,,,,,,,,,,,,,,,,,,,,,,,,,,,,,,,,,,,,,
C59,,,,,,,,,,,,,,,,,,,,,,,,,,,,,,,,,,,,,,,,Sân bay Nội Bài,,,,,,,,,,,,,Hà Nội – Đông Anh – BV Nhiệt Đới Trung Ương,,,,,,,,,,,,,,,,,,,,,,,,,,,,,,,,,,,,,,,,,,,
C60,,,,,,,,,,,,,,,,,,,,,,,,,,,,,,,,,,,,,,,,,,,,,,,Hà Nội – Sân Bay Nội Bài,Hà Nội | Ninh Bình,Hà Nội | Ninh Bình,Hà Nội | Ninh Bình,Hà Nội | Ninh Bình,Hà Nội | Ninh Bình,,,Hà Nội – Đông Anh - BV nhiệt đới Trung ương ,,,,,,,,,,,,,,,,,,,,,,,,,,,,,,,,,,,,,,,,,
C61,,,,,,,,,,,,,,,,,,,,,,,,,,,,,,,,,,,,Malaysia - Kuala Lumpur ,Malaysia - Kuala Lumpur ,Malaysia - Kuala Lumpur ,Malaysia - Kuala Lumpur ,Malaysia ,Malaysia ,Hồ Chí Minh – Sân bay Tân Sơn Nhất,Hồ Chí Minh – Phú Nhuận - Thánh đường Hồi giáo Jamiul Islamic | Ninh Thuận,Ninh Thuận - Thuận Nam,Ninh Thuận – Thuận Nam – Phước Nam – Văn Lâm 3,Ninh Thuận – Thuận Nam – Phước Nam – Văn Lâm 3,Ninh Thuận - Trung tâm Y tế huyện Ninh Phước,Ninh Thuận -  Trung tâm Y tế xã Phước Nam,Ninh Thuận – Thuận Nam – Phước Nam – Văn Lâm 3,Ninh Thuận – Thuận Nam – Phước Nam – Văn Lâm 3,Ninh Thuận – Nhà thờ 101,Ninh Thuận – Thuận Nam – Phước Nam – Văn Lâm 3,Ninh Thuận - Bệnh viện đa khoa tỉnh Ninh Thuận ,Khánh Hòa – Nha Trang – Hương Xuân – Viện Pasteur Nha Trang,,,,,,,,,,,,,,,,,,,,,,,,,,,,,,,,,,,,,,,,,,
C62,,,,,,,,,,,,,,,,,,,,,,,,,,,,,,,,,,,,,,,,,,,,,,,,,,,,,,SB Vân Đồn – Quảng Ninh,Quảng Ninh – Uông Bí -  Bệnh viện Việt Nam - Thuỵ Điển ,Hà Nội - Bệnh viện Bệnh nhiệt đới T.Ư ,,,,,,,,,,,,,,,,,,,,,,,,,,,,,,,,,,,,,,,,
C63,,,,,,,,,,,,,,,,,,,,,,,,,,,,,,,,,,,,,,,,,,,,,,,,,,,,,SB Nội Bài – Hà Nội,,Hà Nội – Đống Đa – Phương Đình – Bệnh viện Nhiệt Đới Trung Ương cở sở 2,,,,,,,,,,,,,,,,,,,,,,,,,,,,,,,,,,,,,,,,,
C64,,,,,,,,,,,,,,,,,,,,,,,,,,,,,,,,,,,,,,,,,,,,,,,,,,Hồ Chí Minh – Tân Bình – Phường 2 – SB Tân Sơn Nhất | TPHCM – Quận 8 – Phường 2 – địa chỉ nhà | TPHCM – Quận 8 – phường 2 – Dạ Nam – 41 - quán Lẩu Bò,TPHCM – Quận 1  - Ngân hàng HSBC chi nhánh Nguyễn Văn Cừ,TPHCM – Quận 8 – Phường 2 – chợ Rạch Ông | TPHCM – Bình Chánh – Bình Hưng – Khu dân cư Trung Sơn – Phòng tập Gym Tiger Sport ,,TPHCM – Quận 8,TPHCM – Củ Chi – Bệnh viện dã chiến Củ Chi,,,,,,,,,,,,,,,,,,,,,,,,,,,,,,,,,,,,,,,,,
C65,,,,,,,,,,,,,,,,,,,,,,,,,,,,,,,,,,,,,,,,,,,,,TPHCM – Quận 1 – Phường Bến Nghé – Cty TOTO,TPHCM – Quận 1 – Phường Bến Nghé – Cty TOTO,TPHCM – Quận 1 – Phường Bến Nghé – Cty TOTO,TPHCM – Quận 1 – Phường Bến Nghé – Cty TOTO | TPHCM – Quận Gò Vấp – Phường 7,TPHCM – Quận Gò Vấp – Phường 7,TPHCM – Quận Gò Vấp – Phường 7,TPHCM – Quận 8 | TPHCM – Củ Chi – Bệnh viện dã chiến Củ Chi,,,,,,,,,,,,,,,,,,,,,,,,,,,,,,,,,,,,,,,,,,,,,
C66,,,,,,,,,,,,,,,,,,,,,,,,,,,,,,,,,,,,,,,,,,,,,,,,,,,,,,Hồ Chí Minh – Tân Bình – Sân bay Tân Sơn Nhất,,,,,,,,,,,,,,,,,,,,,,,,,,,,,,,,,,,,,,,,,,
C67,,,,,,,,,,,,,,,,,,,,,,,,,,,,,,,,,,,,,,,,,,SB TSN,,,,,,,,,,,,,Ninh Thuận – Thuận Nam – Phước Nam,Ninh Thuận – Phan Rang-Tháp Chàm – Văn Hải – Bệnh viện Đa Khoa Tỉnh Ninh Thuận – Khoa Truyền nhiễm,,,,,,,,,,,,,,,,,,,,,,,,,,,,,,,,,,,,,,,,
C68,,,,,,,,,,,,,,,,,,,,,,,,,,Việt Nam| Ấn Độ | Tây Ban Nha | Ma-rốc | Thụy Sỹ| Đức| Hungary | Hà Lan ,,,,,,,,,,,,,,,,,,,,,,,,,,Singapo | Đà Nẵng ,,,,,,,,,,,,,,,,,,,,,,,,,,,,,,,,,,,,,,,,,,,,
C69,,,,,,,,,,,,,,,,,,,,,,,,,,,,,,,,,,,,,,,,,,,,,,,,,,,Sân Bay Nội Bài | Hà Nội ,Hà Nội ,Hà Nội| Hà Nội – Đông Anh – Kim Chung – Bệnh viện nhiệt đới Trung Ương cơ sở Đông Anh , Hà Nội – Đông Anh – Kim Chung – Bệnh viện nhiệt đới Trung Ương cơ sở Đông Anh ,,,,,,,,,,,,,,,,,,,,,,,,,,,,,,,,,,,,,,,,,,
C70,,,,,,,,,,,,,,,,,,,,,,,,,,,,,,,,,,,,,,,,,,,,,,,,,,,,,,Hà Nội – SB Nội Bài,,Hà Nội – Đông Anh – BV Nhiệt đới Trung ương,,,,,,,,,,,,,,,,,,,,,,,,,,,,,,,,,,,,,,,,
C71,,,,,,,,,,,,,,,,,,,,,,,,,,,,,,,,,,,,,,,,,,,,,,,,,,,,,,Hà Nội – SB Nội Bài,,Hà Nội – Đông Anh – BV Nhiệt đới Trung ương,,,,,,,,,,,,,,,,,,,,,,,,,,,,,,,,,,,,,,,,
C72,,,,,,,,,,,,,,,,,,,,,,,,,,,,,,,,,,,,,,,,,,,,,,,Hà Nội – Sân Bay Nội Bài,Hà Nội|Ninh Bình,Hà Nội|Ninh Bình,Hà Nội|Ninh Bình,Hà Nội|Ninh Bình,Hà Nội|Ninh Bình,Hà Nội – Đống Đa – Phương Đình – BV Nhiệt Đới Trung Ương 2,,,,,,,,,,,,,,,,,,,,,,,,,,,,,,,,,,,,,,,,,,,
C73,,,,,,,,,,,,,,,,,,,,,,,,,,,,,,,,,,,,,,,,,,,,,,,Hà Nội – Sân Bay Nội Bài,,,,,,Hải Dương – Thanh Miện – Trung Tâm Y Tế huyện Thanh Miện,,,,,,,,,,,,,,,,,,,,,,,,,,,,,,,,,,,,,,,,,,,
C74,,,,,,,,,,,,,,,,,,,,,,,,,,,,,,,,,,,,,,,,,,,,,,,,,,,,,,Quảng Ninh- Vân Đồn - SB QT Vân Đồn,,Bắc Ninh- Võ Cường- BV ĐK tỉnh Bắc Ninh,,,,,,,,,,,,,,,,,,,,,,,,,,,,,,,,,,,,,,,,
C75,,,,,,,,,,,,,,,,,,,,,,,,,,,,,,,,,,,,,,,,,,,,,,,,,,,,,Hồ Chí Minh- Quận Tân Bình- Phường 2 - SB Tân Sơn Nhất | Hồ Chí Minh- Củ Chi- Nhuận Đức- BV Dã chiến Củ Chi,,,,,,,,,,,,,,,,,,,,,,,,,,,,,,,,,,,,,,,,,,,
C76,,,,,,,,,,,,,,,,,,,,,,,,,,,,,,,,,,,,,,,,,,,,,,,,SB Tân Sơn Nhất,HCM,,Quảng Nam - Hội An ,Huế|TP.Huế- Hai Bà Trưng - khách sạn Thanh Lịch ,TP.Huế - sông Hương| Thành phố Huế - Phú Hội - Lê Lợi - bến Tòa Khâm | Thành phố Huế - Phú Hậu - Thành nội|TP.Huế - Thủy xuân – Lê Ngô Cát - lăng Tự Đức| TP.Huế - Thủy Xuân – Hoài Thanh - nhà hàng Mộc Viên| TP.Huế - Hương Hòa - chùa Thiên Mụ| TP.Huế- Hai Bà Trưng - khách sạn Thanh Lịch ,Ninh Bình ,,Hà Nội – Đông Anh - Bệnh viện Bệnh nhiệt đới trung ương,,,,,,,,,,,,,,,,,,,,,,,,,,,,,,,,,,,,,,,,
C77,,,,,,,,,,,,,,,,,,,,,,,,,,,,,,,,,,,,,,,,,,,,,,,,,,,,,,,SB Nội Bài|Hà Nội - Hoàn Kiếm - Láng Thượng - Nguyễn Chí Thanh - Trung Tâm Kiểm Soát Bệnh Tật Hà Nội,,Hà Nội – Đông Anh - Bệnh viện Bệnh nhiệt đới trung ương,,,,,,,,,,,,,,,,,,,,,,,,,,,,,,,,,,,,,,,
C78,,,,,,,,,,,,,,,,,,,,,,,,,,,,,,,,,,,,,,,,,,,,,,,,,,,,,,,Sân bay Nội Bài|Hà Nội – Đống Đa – Phương Đình – Bệnh viện Nhiệt Đới Trung Ương cở sở 2,,,,,,,,,,,,,,,,,,,,,,,,,,,,,,,,,,,,,,,,,
C79,,,,,,,,,,,,,,,,,,,,,,,,,,,,,,,,,,,,,,,,,,,,,,,,,,,,,,,,,,,,,,,,,,,,,,,,,,,,,,,,,,,,,,,,,,,,,,,,
C80,,,,,,,,,,,,,,,,,,,,,,,,,,,,,,,,,,,,,,,,,,,,,,,,,,,,,Sân bay Tân Sơn Nhất,,,,,,,,,,,,,,,,,,,,,,,,,,,,,,,,,,,,,,,,,,,
C81,,,,,,,,,,,,,,,,,,,,,,,,,,,,,,,,,,,,,,,,,,,,,,,,,,,,,Sân bay Tân Sơn Nhất,,,,,,,,,,,,,,,,,,,,,,,,,,,,,,,,,,,,,,,,,,,
C82,,,,,,,,,,,,,,,,,,,,,,,,,,,,,,,,,,,,,,,,,,,,,,,,,,,,,Sân bay Tân Sơn Nhất| TP.HCM – Quận 12,,,,,,,,,,,,,,,,,,,,,,,,,,,,,,,,,,,,,,,,,,,
C83,,,,,,,,,,,,,,,,,,,,,,,,,,,,,,,,,,,,,,,,,,,,,,,,,,,,,Sân bay Tân Sơn Nhất| TP.HCM – Quận 12,,,,,,,,,,,,,,,,,,,,,,,,,,,,,,,,,,,,,,,,,,,
C84,,,,,,,,,,,,,,,,,,,,,,,,,,,,,,,,,,,,,,,,,,,,,,,,,,,,,,,,Hà Nội – Sóc Sơn – Phú Minh – Sân bay Nội Bài| Hà Nội – Đông Anh – Kim Chung – Bệnh viện Bệnh nhiệt đới Trung Ương cơ sở Đông Anh,,,,,,,,,,,,,,,,,,,,,,,,,,,,,,,,,,,,,,,,
C85,,,,,,,,,,,,,,,,,,,,,,,,,,,,,,,,,,,,,,,,,,,,,,,,,,,,,,,,Hà Nội – Sóc Sơn – Phú Minh – Sân bay Nội Bài| Hà Nội – Đông Anh – Kim Chung – Bệnh viện Bệnh nhiệt đới Trung Ương cơ sở Đông Anh ,,,,,,,,,,,,,,,,,,,,,,,,,,,,,,,,,,,,,,,,
C86,,,,,,,,,,,,,,,,,,,,,,,,,,,,,,,,,,,,,,,,,,,,Hà Nội – Sóc Sơn – Sân bay Nội Bài | Hồ Chí Minh – Tân Bình – Sân bay Tân Sơn Nhất | Côn Đảo ,,Hà Nội – Sóc Sơn – Sân bay Nội Bài,,,Hà Nội – Đống Đa - Bệnh viện Bạch Mai – Viện Tim Mạch Việt Nam  ,,,,,,,,Hà Nội – Đông Anh – Kim Chung – BV Nhiệt đới Trung ương cơ sở 2,,,,,,,,,,,,,,,,,,,,,,,,,,,,,,,,,,,,,,,
C87,,,,,,,,,,,,,,,,,,,,,,,,,,,,,,,,,,,,,,,,,,,,,,,,,,,,,,,,Hà Nội – Đông Anh – Kim Chung – BV Nhiệt đới Trung ương cơ sở 2,,,,,,,,,,,,,,,,,,,,,,,,,,,,,,,,,,,,,,,,
C88,,,,,,,,,,,,,,,,,,,,,,,,,,,,,,,,,,,,,,,,,,,,,,,,,,Anh | Sân Bay Nội bài | Hà Nội – Hà Đông – Phúc La – Khu đô thị Văn Quán ,Hà Nội – Hà Đông – Phúc La – Khu đô thị Văn Quán,Hà Nội – Hà Đông – Phúc La – Khu đô thị Văn Quán,Hà Nội – Hà Đông – Phúc La – Khu đô thị Văn Quán,Hà Nội – Hà Đông – Phúc La – Khu đô thị Văn Quán| Hà Nội – Hoàn Kiếm – Láng Thượng – Nguyễn Chí Thanh – 70 Trung Tâm Kiểm Soát Bệnh Tật Hà Nội| Hà Nội – Đông Anh – Kim Chung – Bệnh Viện Nhiệt Đới Trung Ương cơ sở Đông Anh ,,,,,,,,,,,,,,,,,,,,,,,,,,,,,,,,,,,,,,,,,,
C89,,,,,,,,,,,,,,,,,,,,,,,,,,,,,,,,,,,,,,,,,,,,,,,,,,,,,,,Mỹ – Bostom – NewYork | Nhật Bản | Hồ Chí Minh -  Sân bay Tân Sơn Nhất ,Hô Chí Minh – Bệnh viện dã chiến Củ Chi ,,,,,,,,,,,,,,,,,,,,,,,,,,,,,,,,,,,,,,,,
C90,,,,,,,,,,,,,,,,,,,,,,,,,,,,,,,,,,,,,,,,,,,,,,,,,,,,,,Dubai | Hồ Chí Minh - Tân Sơn Nhất,,,,,,,,,,,,,,,,,,,,,,,,,,,,,,,,,,,,,,,,,,
C91,,,,,,,,,,,,,,,,,,,,,,,,,,,,,,,,,,,,,,,,,,,,,,London | Hồ Chí Minh – Tân Sơn Nhất,,,,,TP.HCM,TP.HCM,TP.HCM,Hà Nội | TP.HCM,TP.HCM,HCM – BV Nhiệt đới ,,,,,,,,,,,,,,,,,,,,,,,,,,,,,,,,,,,,,,,,
C92,,,,,,,,,,,,,,,,,,,,,,,,,,,,,,,,,,,,,,,,,,,,,,,,,,,,,,Pháp – Paris | Qatar – Doha ,Hồ Chí Minh – Tân Sơn Nhất,Hồ Chí Minh – Củ Chi -  Bệnh viện Dã chiến Củ Chi ,,,,,,,,,,,,,,,,,,,,,,,,,,,,,,,,,,,,,,,,
C93,,,,,,,,,,,,,,,,,,,,,,,,,,,,,,,,,,,,,,,,,,,,,,,,,,,,,,,,Hà Nội- Sân bay Nội Bài ,,,,,,,,,,,,,,,,,,,,,,,,,,,,,,,,,,,,,,,,
C94,,,,,,,,,,,,,,,,,,,,,,,,,,,,,,,,,,,,,,,,,,,,,,,,,,,,,,,,Hà Nội- Sân bay Nội Bài ,,Hà Nội - Đống Đa - Phương Đình- Bệnh viện Bệnh Nhiệt đới Trung ương cơ sở 2,,,,,,,,,,,,,,,,,,,,,,,,,,,,,,,,,,,,,,
C95,,,,,,,,,,,,,,,,,,,,,,,,,,,,,,,,,,,,,,,,,,,,,,,,,,,,,,,,Sân bay Tân Sơn Nhất|HCM- Quận 12 - Phường Trung Mỹ Tây- Trường Quân sự Quân khu 7,,,,Hồ Chí Minh – Củ Chi – Bệnh viện Dã chiến Củ Chi,,,,,,,,,,,,,,,,,,,,,,,,,,,,,,,,,,,,
C96,,,,,,,,,,,,,,,,,,,,,,,,,,,,,,,,,,,,,,,,,,,,,,,,,,,,,,,,,Hồ Chí Minh- Quận Tân Bình- Phường 2 - SB Tân Sơn Nhất,Hồ Chí Minh- Thủ Đức- Linh Trung- Khu phố 6- KTX ĐH Quốc gia TPHCM,Hồ Chí Minh - Quận 5 - Phường 1- 764 Võ Văn Kiệt- BV Bệnh Nhiệt Đới TPHCM,,,,,,,,,,,,,,,,,,,,,,,,,,,,,,,,,,,,,
C97,,,,,,,,,,,,,,,,,,,,,,,,,,,,,,,,,,,,,,,,,,,,,,,,,,,Hồ Chí Minh- Quận Tân Bình- Phường 2 - SB Tân Sơn Nhất | Hồ Chí Minh- Quận 4,Hồ Chí Minh- Quận 2- Thảo Điền- Quán Bar Buddha | Hồ Chí Minh- Quận 4,,,,,,Hồ Chí Minh- Quận 7 - Tân Phú - 6 Nguyễn Lương Bằng- Bệnh viện FV | Hồ Chí Minh - Quận 5 - Phường 1- 764 Võ Văn Kiệt- BV Bệnh Nhiệt Đới,,,,,,,,,,,,,,,,,,,,,,,,,,,,,,,,,,,,,,
C98,,,,,,,,,,,,,,,,,,,,,,,,,,,,,,,,,,,,,,,,,,,,Sân bay Tân Sơn Nhất ,,,,,,,,HCM - Quận 2 – Thảo Điền – Bar Buddha,,,,,,HCM - Quận 1 - Phòng khám Đa khoa FV Sài Gòn|HCM – Quận 5 – BV Nhiệt đới TP.HCM,,,,,,,,,,,,,,,,,,,,,,,,,,,,,,,,,,,,,,
C99,,,,,,,,,,,,,,,,,,,,,,,,,,,,,,,,,,,,,,,,,,,,,,,,,,,,,,,,Sân bay Tân Sơn Nhất|HCM- Quận 12 - Phường Trung Mỹ Tây- Trường Quân sự Quân khu 7,,,,,,,,,,,,,,,,,,,,,,,,,,,,,,,,,,,,,,,,
C100,,,,,,,,,,,,,,,,,,,,,,,,,,,,,,,,,,,,,,,,,Hồ Chí Minh – Sân Bay Tân Sơn Nhất|Hồ Chí Minh – Quận 8,Hồ Chí Minh – Quận 8,Hồ Chí Minh – Quận 8,Hồ Chí Minh – Quận 8,Hồ Chí Minh – Quận 8,Hồ Chí Minh – Quận 8,Hồ Chí Minh – Quận 8,Hồ Chí Minh – Quận 8,Hồ Chí Minh – Quận 8,Hồ Chí Minh – Quận 8,Hồ Chí Minh – Quận 8,Hồ Chí Minh – Quận 8,Hồ Chí Minh – Quận 8,Hồ Chí Minh – Quận 8,Hồ Chí Minh – Quận 8,Hồ Chí Minh – Quận 8|Hồ Chí Minh - Quận 5 - Phường 1- 764 Võ Văn Kiệt- BV Bệnh Nhiệt Đới,,,,,,,,,,,,,,,,,,,,,,,,,,,,,,,,,,,,,,,,
C101,,,,,,,,,,,,,,,,,,,,,,,,,,,,,,,,,,,,,,,,,,,,,,,,,,,,,,,,Cần Thơ – Bình Thủy – Long Hòa – Sân bay Cần Thơ | Đồng Tháp – Sa Đéc – Trường Quân sự Đồng Tháp,,,,,,,,,,,,,,,,,,,,,,,,,,,,,,,,,,,,,,,,
C102,,,,,,,,,,,,,,,,,,,,,,,,,,,,,,,,,,,,,,,,,,,,,,,,,,,,,,,,Cần Thơ – Bình Thủy – Long Hòa – Sân bay Cần Thơ | Đồng Tháp – Sa Đéc – Trường Quân sự Đồng Tháp,,,,,,,,,,,,,,,,,,,,,,,,,,,,,,,,,,,,,,,,
C103,,,,,,,,,,,,,,,,,,,,,,,,,,,,,,,,,,,,,,,,,,,,,,,,,,,,,,,,Cần Thơ – Bình Thủy – Long Hòa – Sân bay Cần Thơ | Đồng Tháp – Sa Đéc – Trường Quân sự Đồng Tháp,,,,,,,,,,,,,,,,,,,,,,,,,,,,,,,,,,,,,,,,
C104,,,,,,,,,,,,,,,,,,,,,,,,,,,,,,,,,,,,,,,,,,,,,,,,,,,,,,,,Cần Thơ – Bình Thủy – Long Hòa – Sân bay Cần Thơ | Đồng Tháp – Sa Đéc – Trường Quân sự Đồng Tháp,,,,Đồng Tháp – Sa Đéc – Bệnh viện Đa khoa Sa Đéc,,,,,,,,,,,,,,,,,,,,,,,,,,,,,,,,,,,,
C105,,,,,,,,,,,,,,,,,,,,,,,,,,,,,,,,,,,,,,,,,,,,,,,,,,,,,,,,Cần Thơ – Bình Thủy – Long Hòa – Sân bay Cần Thơ | Trà Vinh – Châu Thành – Trường Quân sự Trà Vinh,,,,Trà Vinh – Châu Thành – Bệnh viện Lao và bệnh phổi Trà Vinh,,,,,,,,,,,,,,,,,,,,,,,,,,,,,,,,,,,,
C106,,,,,,,,,,,,,,,,,,,,,,,,,,,,,,,,,,,,,,,,,,,,,,,,,,,,,,,,Cần Thơ – Bình Thủy – Long Hòa – Sân bay Cần Thơ | Trà Vinh – Châu Thành – Trường Quân sự Trà Vinh,,,,,,,,,,,,,,,,,,,,,,,,,,,,,,,,,,,,,,,,
C107,,,,,,,,,,,,,,,,,,,,,,,,,,,,,,,,,,,,,,,,,,,,,,,,,,,,,,,,,,,,,,,,,,,,,,,,,,,,,,,,,,,,,,,,,,,,,,,,
C108,,,,,,,,,,,,,,,,,,,,,,,,,,,,,,,,,,,,,,,,,,,,,,,,,,,,,,,,SB Nội Bài | Hà Nội - Hoàn Kiếm-Khách sạn Hòa Bình,Hà Nội - Hoàn Kiếm- Khách sạn Hòa Bình,Hà Nội – BV Thanh Nhàn ,Hà Nội – Đông Anh – BV nhiệt đới Trung ương,,,,,,,,,,,,,,,,,,,,,,,,,,,,,,,,,,,,,
C109,,,,,,,,,,,,,,,,,,,,,,,,,,,,,,,,,,,,,,,,,,,,,,,,,,,,,SB Nội Bài | Thị xã Sơn Tây,Hà Nội – Đống Đa - Bệnh viện Bạch Mai ,,,,,Hà Nội – Đông Anh – BV Nhiệt đới Trung ương,,,,,,,,,,,,,,,,,,,,,,,,,,,,,,,,,,,,,
C110,,,,,,,,,,,,,,,,,,,,,,,,,,,,,,,,,,,,,,,,,,,,,,,,,,,,,,,,,Sân bay Nội Bài,,,,,,,,,,,,,,,,,,,,,,,,,,,,,,,,,,,,,,,
C111,,,,,,,,,,,,,,,,,,,,,,,,,,,,,,,,,,,,,,,,,,,,,,,,,,,,,,,,,Sân bay Nội Bài | Trường Quân sự tỉnh Hưng Yên,,,,,,,,,,,,,,,,,,,,,,,,,,,,,,,,,,,,,,,
C112,,,,,,,,,,,,,,,,,,,,,,,,,,,,,,,,,,,,,,,,,,,,,,,,,,,,,,,,Sân bay Nội Bài | Trường Quân sự tỉnh Hưng Yên,,,,,,,,,,,,,,,,,,,,,,,,,,,,,,,,,,,,,,,,
C113,,,,,,,,,,,,,,,,,,,,,,,,,,,,,,,,,,,,,,,,,,,,,,,,,,,,,,,,Sân bay Nội Bài| Hà Nội – Hoàn Kiếm - Khách sạn Hòa Bình,,,,,,,,,,,,,,,,,,,,,,,,,,,,,,,,,,,,,,,,
C114,,,,,,,,,,,,,,,,,,,,,,,,,,,,,,,,,,,,,,,,,,,,,,,,,,,,,Singapore| Sân bay Nội Bài| Sơn Tây,Sơn Tây,Sơn Tây,Sơn Tây,Hà Nội – Đông Anh – BV Nhiệt Đới Trung Ương,,,,,,,,,,,,,,,,,,,,,,,,,,,,,,,,,,,,,,,
C115,,,,,,,,,,,,,,,,,,,,,,,,,,,,,,,,,,,,,,,,,,,,,,,,,,,,,,,,Sân bay Nội Bài| Bắc Giang,Bắc Giang,Hà Nội – Đông Anh – BV Nhiệt Đới Trung Ương,,,,,,,,,,,,,,,,,,,,,,,,,,,,,,,,,,,,,,
C116,,,,,,,,,,,,,,,,,,,Hà Nội – Đống Đa – Phương Đình – BV Nhiệt đới TƯ cơ sở 2,,,,,,,,,Hà Nội – Đống Đa – Phương Đình – BV Nhiệt đới TƯ cơ sở 2,Hà Nội – Đống Đa – Phương Đình – BV Nhiệt đới TƯ cơ sở 2,Hà Nội – Đống Đa – Phương Đình – BV Nhiệt đới TƯ cơ sở 2,Hà Nội – Đống Đa – Phương Đình – BV Nhiệt đới TƯ cơ sở 2,Hà Nội – Đống Đa – Phương Đình – BV Nhiệt đới TƯ cơ sở 2,,,,,,,,,,,,,,,,,,,,,,,,,,,,,,,,,,,,,,,,,,,,,,,,,,,,,,,,,,,,,,,,
C117,,,,,,,,,,,,,,,,,,,,,,,,,,,,,,,,,,,,,,,,,,,,,,,Campuchia - Phnom Penh - Khách sạn infinity,Campuchia - Phnom Penh - Khách sạn infinity,Campuchia - Phnom Penh - Khách sạn infinity,Campuchia - Phnom Penh - Khách sạn infinity,Campuchia - Phnom Penh - Khách sạn infinity,Campuchia - Phnom Penh - Khách sạn infinity,Campuchia - Phnom Penh - Khách sạn infinity,Campuchia - Phnom Penh - Khách sạn infinity,Campuchia - Phnom Penh - Khách sạn infinity,Campuchia - Phnom Penh - Khách sạn infinity,Campuchia - Phnom Penh - Khách sạn infinity|Việt Nam – Tây Ninh – Cửa khẩu Mộc Bài|Tây Ninh – Hòa Thanh – Kp 5- BV Đa Khoa tỉnh Tây Ninh,,,,,,,,,,,,,,,,,,,,,,,,,,,,,,,,,,,,,,,
C118,,,,,,,,,,,,,,,,,,,,,,,,,,,,,,,,,,,,,,,,,,,Campuchia,Campuchia,Campuchia,Campuchia,Campuchia,Campuchia,Campuchia,Campuchia,Campuchia,Campuchia,Campuchia,Campuchia,Campuchia,Campuchia,Tây Ninh- Mộc Bài - Cửa khẩu Quốc tế Mộc Bài | Tây Ninh- Hoà Thành - BV ĐK Tỉnh Tây Ninh,,,,,,,,,,,,,,,,,,,,,,,,,,,,,,,,,,,,,,,
C119,,,,,,,,,,,,,,,,,,,,,,,,,,,,,,,,,,,,,,,Thái Lan - Indonesia - Việt Nam,Thái Lan - Indonesia - Việt Nam,Thái Lan - Indonesia - Việt Nam,Thái Lan - Indonesia - Việt Nam,Thái Lan - Indonesia - Việt Nam,Thái Lan - Indonesia - Việt Nam,Thái Lan - Indonesia - Việt Nam,Thái Lan - Indonesia - Việt Nam,Thái Lan - Indonesia - Việt Nam,Thái Lan - Indonesia - Việt Nam,Thái Lan - Indonesia - Việt Nam,Thái Lan - Indonesia - Việt Nam,Thái Lan - Indonesia - Việt Nam,Thái Lan - Indonesia - Việt Nam,Sân bay Tân Sơn Nhất| Hồ Chí Minh - Quận 1- Bến Nghé - Tầng 13 Mplaza Saigon - Công ty TNHH The Boston Consulting Group,Hồ Chí Minh - Quận 1- Bến Nghé - Tầng 13 Mplaza Saigon - Công ty TNHH The Boston Consulting Group,Hồ Chí Minh - Quận 1- Bến Nghé - Tầng 13 Mplaza Saigon - Công ty TNHH The Boston Consulting Group,Hồ Chí Minh - Quận 1- Bến Nghé - Tầng 13 Mplaza Saigon - Công ty TNHH The Boston Consulting Group,Hồ Chí Minh - Quận 1- Bến Nghé - Tầng 13 Mplaza Saigon - Công ty TNHH The Boston Consulting Group,Hồ Chí Minh - Quận 7 - Tân Phú - 6 Nguyễn Lương Bằng - Bệnh viện FV,,,,,,,,,,,,,,,,,,,,,,,,,,,,,,,,,,,,,,
C120,,,,,,,,,,,,,,,,,,,,,,,,,,,,,,,,,,,,,,,,,,,,,,,,,,,,TPHCM – Quận 2 | TPHCM – Quận 2 – Thảo Điền – Bar Buddha,,,,,HCM - Quận 2,,HCM – Củ Chi – Bệnh viện Dã chiến Củ Chi,,,,,,,,,,,,,,,,,,,,,,,,,,,,,,,,,,,,,
C121,,,,,,,,,,,,,,,,,,,,,,,,,,,,,,,,,,,,,,,,,,,,,,,,,,,,,,,,,SB Tân Sơn Nhất| HCM – Cần Giờ – Trung tâm y tế huyện Cần Giờ,,,,,,,,,,,,,,,,,,,,,,,,,,,,,,,,,,,,,,,
C122,,,,,,,,,,,,,,,,,,,,,,,,,,,,,,,,,,,,,,,,,,,,,,,,,,,,,,,,,,SB Đà Nẵng,,,,,,,,,,,,,,,,,,,,,,,,,,,,,,,,,,,,,,
C122.1,,,,,,,,,,,,,,,,,,,,,,,,,,,,,,,,,,,,,,,,,,,,,,,,,,,,,,,Thai Lan – Bangkok,,,,,,,Hà Tĩnh - Hương Sơn,,,,,,,,,,,,,,,,,,,,,,,,,,,,,,,,,,
C122.2,,,,,,,,,,,,,,,,,,,,,,,,,,,,,,,,,,,,,,,,,,,,,,,,,,,,,,,,,,,,,,Hà Tĩnh - Hương Sơn,,,,,,,,,,,,,,,,,,,,,,,,,,,,,,,,,,
C122.3,,,,,,,,,,,,,,,,,,,,,,,,,,,,,,,,,,,,,,,,,,,,,,,,,,,,,,,,,,,,,,Hà Tĩnh - Hương Sơn,,,,,,,,,,,,,,,,,,,,,,,,,,,,,,,,,,
C122.4,,,,,,,,,,,,,,,,,,,,,,,,,,,,,,,,,,,,,,,,,,,,,,,,,,,,,,,,,,,,,,Hà Tĩnh - Hương Sơn,,,,,,,,,,,,,,,,,,,,,,,,,,,,,,,,,,
C122.5,,,,,,,,,,,,,,,,,,,,,,,,,,,,,,,,,,,,,,,,,,,,,,,,,,,,,,,,,,,,,,Hà Tĩnh - Hương Sơn,,,,,,,,,,,,,,,,,,,,,,,,,,,,,,,,,,
C122.6,,,,,,,,,,,,,,,,,,,,,,,,,,,,,,,,,,,,,,,,,,,,,,,,,,,,,,,,,,,,,,Hà Tĩnh - Hương Sơn,,,,,,,,,,,,,,,,,,,,,,,,,,,,,,,,,,
C122.7,,,,,,,,,,,,,,,,,,,,,,,,,,,,,,,,,,,,,,,,,,,,,,,,,,,,,,,,,,,,,,Hà Tĩnh - Hương Sơn,,,,,,,,,,,,,,,,,,,,,,,,,,,,,,,,,,
C123,,,,,,,,,,,,,,,,,,,,,,,,,,,,,,,,,,,,,,,,,,,,,,,,,,,,,,,Sarawa – Malaysia|Bandar Seri Segawan - Brunei|SB Tân Sơn Nhất|Bến Tre,,,,,,,,,,,,,,,,,,,,,,,,,,,,,,,,,,,,,,,,,
C123.1,,,,,,,,,,,,,,,,,,,,,,,,,,,,,,,,,,,,,,,,,,,,,,,,,,,,,,,SB Tân Sơn Nhất|Bến Tre,,,,,,,,,,,,,,,,,,,,,,,,,,,,,,,,,,,,,,,,,
C123.2,,,,,,,,,,,,,,,,,,,,,,,,,,,,,,,,,,,,,,,,,,,,,,,,,,,,,,,,,,,,,,,,,,,,,,,,,,,,,,,,,,,,,,,,,,,,,,,,
C123.3,,,,,,,,,,,,,,,,,,,,,,,,,,,,,,,,,,,,,,,,,,,,,,,,,,,,,,,,,,,,,,,,,,,,,,,,,,,,,,,,,,,,,,,,,,,,,,,,
C124,,,,,,,,,,,,,,,,,,,,,,,,,,,,,,,,,,,,,,,,,,,,,,,,,,,,HCM - Quận 2|Đồng Nai – Vĩnh Cửu – Thạnh Phú,HCM - Quận 2|Đồng Nai - Vĩnh Cửu - Thạnh Phú,HCM - Quận 2|Đồng Nai - Vĩnh Cửu - Thạnh Phú,HCM - Quận 2|Đồng Nai - Vĩnh Cửu - Thạnh Phú,HCM - Quận 2|Đồng Nai - Vĩnh Cửu - Thạnh Phú,HCM - Quận 2|Đồng Nai - Vĩnh Cửu - Thạnh Phú,HCM - Quận 2|Đồng Nai - Vĩnh Cửu - Thạnh Phú,HCM - Quận 2|Đồng Nai - Vĩnh Cửu - Thạnh Phú,HCM - Củ Chi,,,,,,,,,,,,,,,,,,,,,,,,,,,,,,,,,,,,
C125,,,,,,,,,,,,,,,,,,,,,,,,,,,,,,,,,,,,,,,,,,,,,,,,,,,,HCM - Quận 2|HCM - Quận 7,HCM - Quận 7,HCM - Quận 7,HCM - Quận 7,HCM - Quận 7,HCM - Quận 7,HCM - Quận 7,HCM - Quận 7,HCM - Cần Giờ,,,,,,,,,,,,,,,,,,,,,,,,,,,,,,,,,,,,
C126,,,,,,,,,,,,,,,,,,,,,,,,,,,,,,,,,,,,,,,,,,,,,,,,,,,,HCM – Quận 2| HCM – Quận 7,HCM - Quận 7,HCM - Quận 7,HCM - Quận 7,HCM - Quận 7,HCM - Quận 7,HCM - Quận 7,HCM - Quận 7,HCM - Cần Giờ,,,,,,,,,,,,,,,,,,,,,,,,,,,,,,,,,,,,
C127,,,,,,,,,,,,,,,,,,,,,,,,,,,,,,,,,,,,,,,,,,,,,,,,,,,,HCM – Quận 2| HCM – Tân Phú,HCM – Tân Phú,HCM – Tân Phú,HCM – Tân Phú,HCM – Tân Phú,HCM – Tân Phú,HCM – Tân Phú,HCM – Tân Phú,HCM – Tân Phú,HCM – Tân Phú,HCM – Củ Chi,,,,,,,,,,,,,,,,,,,,,,,,,,,,,,,,,,
C127.1,,,,,,,,,,,,,,,,,,,,,,,,,,,,,,,,,,,,,,,,,,,,,,,,,,,,,,HCM – Tân Phú – Sơn Kỳ – Tân Kỳ Tân Quý,HCM – Tân Phú – Sơn Kỳ – Tân Kỳ Tân Quý,HCM – Tân Phú – Sơn Kỳ – Tân Kỳ Tân Quý,HCM – Tân Phú – Sơn Kỳ – Tân Kỳ Tân Quý,HCM – Tân Phú – Sơn Kỳ – Tân Kỳ Tân Quý,HCM – Tân Phú – Sơn Kỳ – Tân Kỳ Tân Quý,HCM – Tân Phú – Sơn Kỳ – Tân Kỳ Tân Quý,HCM – Tân Phú – Sơn Kỳ – Tân Kỳ Tân Quý,,,,,,,,,,,,,,,,,,,,,,,,,,,,,,,,,,,
C127.2,,,,,,,,,,,,,,,,,,,,,,,,,,,,,,,,,,,,,,,,,,,,,,,,,,,,,,HCM – Tân Phú – Sơn Kỳ – Tân Kỳ Tân Quý,,,,,,,,,,,,,,,,,,,,,,,,,,,,,,,,,,,,,,,,,,
C127.3,,,,,,,,,,,,,,,,,,,,,,,,,,,,,,,,,,,,,,,,,,,,,,,,,,,,,,HCM – Tân Phú – Sơn Kỳ – Tân Kỳ Tân Quý,,,,,,,,,,,,,,,,,,,,,,,,,,,,,,,,,,,,,,,,,,
C128,,,,,,,,,,,,,,,,,,,,,,,,,,,,,,,,,,,,,,,,,,,,,,,,,,,,,,,,,,SB Nội Bài,,,,,,,,,,,,,,,,,,,,,,,,,,,,,,,,,,,,,,
C129,,,,,,,,,,,,,,,,,,,,,,,,,,,,,,,,,,,,,,,,,,,,,,,,,,,,,,,,,,SB Nội Bài,,,,,,,,,,,,,,,,,,,,,,,,,,,,,,,,,,,,,,
C130,,,,,,,,,,,,,,,,,,,,,,,,,,,,,,,,,,,,,,,,,,,,,,,,,,,,,,,,,,,,Sân bay Nội Bài,Hà Nội – Đông Anh,,,,,,,,,,,,,,,,,,,,,,,,,,,,,,,,,,,
C131,,,,,,,,,,,,,,,,,,,,,,,,,,,,,,,,,,,,,,,,,,,,,,,,,,,,,,,,,,,,Sân bay Nội Bài,,,,,,,,,,,,,,,,,,,,,,,,,,,,,,,,,,,,
C132,,,,,,,,,,,,,,,,,,,,,,,,,,,,,,,,,,,,,,,,,,,,,,,,,,,,,,,,,,,,Sân bay Nội Bài,Hà Nội – Đông Anh,,,,,,,,,,,,,,,,,,,,,,,,,,,,,,,,,,,
C133,,,,,,,,,,,,,,,,,,,,,,,,,,,,,,,,,,,,,,Lai Châu|Hà Nội - Đống Đa,,,,,,,,,,,,,,,,,,,,,,Lai Châu,,Hà Nội - Đông Anh,,,,,,,,,,,,,,,,,,,,,,,,,,,,,,,,,,
C133.1,,,,,,,,,,,,,,,,,,,,,,,,,,,,,,,,,,,,,,,,,,,,,,,,,,,,,,,,,Hà Nội - Đống Đa,Quảng Ninh - Cấm Phả - Cẩm Phú,,,,,,,,,,,,,,,,,,,,,,,,,,,,,,,,,,,,,,
C133.2,,,,,,,,,,,,,,,,,,,,,,,,,,,,,,,,,,,,,,Cửa khẩu QT Hà Tĩnh|Hà Tĩnh - Hương Sơn,,,,,,,,,,,,,,,,,,,,,,Lai Châu,,Hà Nội – Đông Anh,,,,,,,,,,,,,,,,,,,,,,,,,,,,,,,,,,
C133.3,,,,,,,,,,,,,,,,,,,,,,,,,,,,,,,,,,,,,,,,,,,,,,,,,,,,,,,Hà Nội – Đống Đa,,,,,,,,,,,,,,,,,,,,,,,,,,,,,,,,,,,,,,,,,
C133.4,,,,,,,,,,,,,,,,,,,,,,,,,,,,,,,,,,,,,,,,,,,,,,,,,,,,,,,Hà Nội – Đống Đa,,,,,,,,,,,,,,,,,,,,,,,,,,,,,,,,,,,,,,,,,
C133.5,,,,,,,,,,,,,,,,,,,,,,,,,,,,,,,,,,,,,,,,,,,,,,,,,,,,,,,Hà Nội – Đống Đa,,,,,,,,,,,,,,,,,,,,,,,,,,,,,,,,,,,,,,,,,
C134,,,,,,,,,,,,,,,,,,,,,,,,,,,,,,,,,,,,,,,,,,,,,,,,,,,,,,,,SB Nội Bài|Thanh Hóa,,,,,,,,,,,,,,,,,,,,,,,,,,,,,,,,,,,,,,,,
C135,,,,,,,,,,,,,,,,,,,,,,,,,,,,,,,,,,,,,,,,,,,,,,,,,,,,,,,,,,,Thái Lan – Bangkok|SB Đà Nẵng,,,,,,,,,,,,,,,,,,,,,,,,,,,,,,,,,,,,,
C136,,,,,,,,,,,,,,,,,,,,,,,,,,,,,,,,,,,,,,,,,,,,,,,,,,,,,,SB Nội Bài|Hà Nội – Hoàng Mai – Linh Đàm,Hà Nội – Hoàng Mai – Linh Đàm,Hà Nội – Hoàng Mai – Linh Đàm,Hà Nội – Hoàng Mai – Linh Đàm,Hà Nội – Hoàng Mai – Linh Đàm,Hà Nội – Hoàng Mai – Linh Đàm,Hà Nội – Đông Anh,,,,,,,,,,,,,,,,,,,,,,,,,,,,,,,,,,,,
C137,,,,,,,,,,,,,,,,,,,,,,,,,,,,,,,,,,,,,,,,,,,,,,,,,,,,,,,,,,,,Sân bay Nội Bài,,,,,,,,,,,,,,,,,,,,,,,,,,,,,,,,,,,,
C138,,,,,,,,,,,,,,,,,,,,,,,,,,,,,,,,,,,,,,,,,,,,,,,,,,,,,,,,,,,Sân bay Nội Bài,,,Hà Nội – Đông Anh,,,,,,,,,,,,,,,,,,,,,,,,,,,,,,,,,,
C139,,,,,,,,,,,,,,,,,,,,,,,,,,,,,,,,,,,,,,,,,,,,,,,,,,,,,,,,,,,,,,,,,,,,,,,,,,,,,,,,,,,,,,,,,,,,,,,,
C140,,,,,,,,,,,,,,,,,,,,,,,,,,,,,,,,,,,,,,,,,,,,,,,,,,,,,,,,,,,SB Nội Bài|Hà Nội,Hà Nội,,,,,,,,,,,,,,,,,,,,,,,,,,,,,,,,,,,,
C141,,,,,,,,,,,,,,,,,,,,,,,,,,,,,,,,,,,,,,,,,,,,,,,,,,,,,,,,,,,Hà Nội – Đống Đa – Phương Mai,,,,,,,,,,,,,,,,,,,,,,,,,,,,,,,,,,,,,
C142,,,,,,,,,,,,,,,,,,,,,,,,,,,,,,,,,,,,,,,,,,,,,,,,SB Tân Sơn Nhất|TP.HCM – Quận 3|TP.HCM – Quận 1|TP.HCM – Huyện Bình Chánh,,,,,,,,,,,,,TP.HCM – Huyện Bình Chánh – thị trấn Tân Túc,,,,,,,,,,,,,,,,,,,,,,,,,,,,,,,,,,,
C143,,,,,,,,,,,,,,,,,,,,,,,,,,,,,,,,,,,,,,,,,,,,,,,,,,,,,,,,,,,Sân bay Tân Sơn Nhất|HCM – Thủ Đức,,,,,,,,,,,,,,,,,,,,,,,,,,,,,,,,,,,,,
C144,,,,,,,,,,,,,,,,,,,,,,,,,,,,,,,,,,,,,,,,,,,,,,,,,,,,,,,,,,,,Sân bay Tân Sơn Nhất,,,,,,,,,,,,,,,,,,,,,,,,,,,,,,,,,,,,
C145,,,,,,,,,,,,,,,,,,,,,,,,,,,,,,,,,,,,,,,,,,,,,,,,,,,,,,,,,,,,Sân bay Cần Thơ,,,,,,,,,,,,,,,,,,,,,,,,,,,,,,,,,,,,
C146,,,,,,,,,,,,,,,,,,,,,,,,,,,,,,,,,,,,,,,,,,,,,,,,,,,,,,,,,,Hà Tĩnh - Hương Sơn,,,,,,,,,,,,,,,,,,,,,,,,,,,,,,,,,,,,,,
C147,,,,,,,,,,,,,,,,,,,,,,,,,,,,,,,,,,,,,,,,,,,,,,,,,,,,,,,,,,,SB Nội Bài|Hà Nội – Đống Đa – Phương Đình – Giải Phóng,,,,,,,,,,,,,,,,,,,,,,,,,,,,,,,,,,,,,
C148,,,,,,,,,,,,,,,,,,,,,,,,,,,,,,,,,,,,,,,,,,,,,,,,,,SB Nội Bài|Hà Nội – Đống Đa – Chợ Dừa - 36 Tân Hoàng Minh|Hà Nội – Hoàn Kiếm – phố Hàm Long - cửa hàng Giặt là Paris Laundry|Hà Nội – Hoàn Kiếm – Trần Hưng Đạo - quán Lela Coffee,Hà Nội – Đống Đa – phố Nguyên Hồng - quán café Aroma|Hà Nội – Đống Đa – phố Nguyên Hồng,Hà Nội – Đống Đa – phố Nguyên Hồng,,Hà Nội – Hoàn Kiếm – Trần Hưng Đạo - Ngân hàng BIDV|Hà Nội – Hai Bà Trưng – Lê Đại Hành - Công ty đầu tư chứng khoán VPSB|Hà Nội – Hoàn Kiếm – phố Hàm Long,Hà Nội – Hoàn Kiếm – phố Hàm Long|Hà Nội – Hoàn Kiếm – Phan Chu Trinh - quán O'DOUCEURS,Hà Nội – Hoàn Kiếm – Phan Chu Trinh - quán O'DOUCEURS|Hà Nội – Hai Bà Trưng – phố Lê Văn Hưu|Hà Nội – Hoàn Kiếm – Lý Thường Kiệt - phòng tập gym Elite Fitness,,,,,,,,,,,,,,,,,,,,,,,,,,,,,,,,,,,,,,,,
C149,,,,,,,,,,,,,,,,,,,,,,,,,,,,,,,,,,,,,,,,,,,,,,,,,,,,,,,,,,,,,Sân bay Vân Đồn,Quảng Ninh,Hạ Long,,,,,,,,,,,,,,,,,,,,,,,,,,,,,,,,,
C149.1,,,,,,,,,,,,,,,,,,,,,,,,,,,,,,,,,,,,,,,,,,,,,,,,,,,,,,,,,,,,,Sân bay Vân Đồn,Quảng Ninh,Hạ Long,,,,,,,,,,,,,,,,,,,,,,,,,,,,,,,,,
C149.2,,,,,,,,,,,,,,,,,,,,,,,,,,,,,,,,,,,,,,,,,,,,,,,,,,,,,,,,,,,,,Sân bay Vân Đồn,Quảng Ninh,Hạ Long,,,,,,,,,,,,,,,,,,,,,,,,,,,,,,,,,
C149.3,,,,,,,,,,,,,,,,,,,,,,,,,,,,,,,,,,,,,,,,,,,,,,,,,,,,,,,,,,,,,Sân bay Vân Đồn,Quảng Ninh,Hạ Long,,,,,,,,,,,,,,,,,,,,,,,,,,,,,,,,,
C150,,,,,,,,,,,,,,,,,,,,,,,,,,,,,,,,,,,,,,,,,,,,,,,,,,,,Sân bay TSN | HCM-Quận 1,HCM-Q3,HCM-Q1 | HCM- Q.PN,,HCM - Nhà Bè | HCM - Q1 | HCM – Q.5 – P.1 - Bv Nhiệt đới,,,,,,,,,,,,,,,,,,,,,,,,,,,,,,,,,,,,,,,,
C151,,,,,,,,,,,,,,,,,,,,,,,,,,,,,,,,,,,,,,,,,,,,,,,,,,,HCM - Quận 2 – Thảo Điền|Đồng Nai – Biên Hòa,HCM - Quận 2 – Thảo Điền|Đồng Nai – Vĩnh Cửu – Thạnh Phú,HCM - Quận 2 – Thảo Điền|Đồng Nai – Vĩnh Cửu – Thạnh Phú,HCM - Quận 2 – Thảo Điền|Đồng Nai – Vĩnh Cửu – Thạnh Phú,HCM - Quận 2 – Thảo Điền|Đồng Nai - Vĩnh Cửu - Thạnh Phú,HCM - Quận 2 – Thảo Điền|Đồng Nai - Vĩnh Cửu - Thạnh Phú,HCM - Quận 2 – Thảo Điền|Đồng Nai - Vĩnh Cửu - Thạnh Phú|HCM – Gò Vấp – nhà máy Huệ Phong,HCM - Quận 2 – Thảo Điền|Đồng Nai - Vĩnh Cửu - Thạnh Phú,HCM - Quận 2 – Thảo Điền|Đồng Nai - Vĩnh Cửu - Thạnh Phú,HCM – Quận 2 – Thảo Điền,HCM – Củ Chi,,,,,,,,,,,,,,,,,,,,,,,,,,,,,,,,,,,
C152,,,,,,,,,,,,,,,,,,,,,,,,,,,,,,,,,,,,,,,,,,,,,,,,HCM – Tân Phú – Tây Thạnh|HCM – Q.3 – P.5,HCM – Tân Phú – Tây Thạnh|HCM – Q.3 – P.5,HCM – Tân Phú – Tây Thạnh|HCM – Q.3 – P.5,HCM – Tân Phú – Tây Thạnh|HCM – Q.3 – P.5,HCM – Tân Phú – Tây Thạnh|HCM – Q.3 – P.5,HCM – Tân Phú – Tây Thạnh|HCM - Tân Bình,HCM – Tân Phú – Tây Thạnh|HCM – Q.3 – P.5,HCM – Tân Phú – Tây Thạnh|HCM – Q.3 – P.5,HCM – Tân Phú – Tây Thạnh|HCM – Q.3 – P.5|HCM – Q.1 – P.Phạm Ngũ Lão,HCM – Tân Phú – Tây Thạnh|HCM – Q.1,HCM – Tân Phú – Tây Thạnh,HCM – Tân Phú – Tây Thạnh,HCM – Tân Phú – Tây Thạnh,HCM – Cần Giờ,,,,,,,,,,,,,,,,,,,,,,,,,,,,,,,,,,,
C153,,,,,,,,,,,,,,,,,,,,,,,,,,,,,,,,,,,,,,,,,,,,,,,,,,,,,,,,,,,SB TSN|HCM – Thủ Đức – Linh Trung,,HCM – Củ Chi,,,,,,,,,,,,,,,,,,,,,,,,,,,,,,,,,,,
C154,,,,,,,,,,,,,,,,,,,,,,,,,,,,,,,,,,,,,,,,,,,,,,,,,,,,,,,,,,,,Sân bay Cần Thơ,,,,,,,,,,,,,,,,,,,,,,,,,,,,,,,,,,,,
C155,,,,,,,,,,,,,,,,,,,,,,,,,,,,,,,,,,,,,,,,,,,,,,,,,,,,,,,,,,,,Sân bay Cần Thơ| Bạc Liêu – Thị Xã Giá Rai,,,,,,,,,,,,,,,,,,,,,,,,,,,,,,,,,,,,
C156,,,,,,,,,,,,,,,,,,,,,,,,,,,,,,,,,,,,,,,,,,,,,,,,,,,,,,,,,,,,Sân bay Tân Sơn Nhất,,,,,,,,,,,,,,,,,,,,,,,,,,,,,,,,,,,,
C157,,,,,,,,,,,,,,,,,,,,,,,,,,,,,,,,,,,,,,,,,,,,,,,,,,,,HCM – Q2 -Bar buddha  |  Q4 – Chung cư Copac Square ,Q4 – Chung cư Copac Square ,Q4 – Chung cư Copac Square ,Q4 – Chung cư Copac Square ,Q4 – Chung cư Copac Square ,Q4 – Chung cư Copac Square ,Q4 – Chung cư Copac Square ,Q4 – Chung cư Copac Square ,Q4 – Chung cư Copac Square ,Q4 – Chung cư Copac Square ,Q4 – Chung cư Copac Square ,HCM – BV quận 4,,,,,,,,,,,,,,,,,,,,,,,,,,,,,,,,,
C158,,,,,,,,,,,,,,,,,,,,,,,,,,,,,,,,,,,,,,,,,,,,,,,,,,,,HCM - Q2,,,,,,,,,,,,,HCM - Quận 5,,,,,,,,,,,,,,,,,,,,,,,,,,,,,,,
C159,,,,,,,,,,,,,,,,,,,,,,,,,,,,,,,,,,,,,,,,,,,,,,,,,,,,HCM - Q2,,,,,,,,,,,,,HCM - Quận 5,,,,,,,,,,,,,,,,,,,,,,,,,,,,,,,
C160,,,,,,,,,,,,,,,,,,,,,,,,,,,,,,,,,,,,,,,,,,,,,,,,,,,,,,,,,,,,Sân bay Tân Sơn Nhất,,,,,,,,,,,,,,,,,,,,,,,,,,,,,,,,,,,,
C161,,,,,,,,,,,,,,,,,,,,,,,,,,,,,,,,,,,,,,,,,,,,,,,,,,,,,,,,,,,,,,,,,,,,,,,,,,,,,,,,,,,,,,,,,,,,,,,,
C162,,,,,,,,,,,,,,,,,,,,,,,,,,,,,,,,,,,,,,,,,,,,,,,,,,,,,,,,,,,,,,,BV Bệnh nhiệt đới Trung ương cơ sở 2,,,,,,,,,,,,,,,,,,,,,,,,,,,,,,,,,
C163,,,,,,,,,,,,,,,,,,,,,,,,,,,,,,,,,,,,,,,,,,,,,,,,,,,,,,,,,,,,,,,,,,,,,,,,,,,,,,,,,,,,,,,,,,,,,,,,
C164,,,,,,,,,,,,,,,,,,,,,,,,,,,,,,,,,,,,,,,,,,,,,,,,,,,,,,,,,,,,,SB Vân Đồn|Ninh Bình,,,,,,,,,,,,,,,,,,,,,,,,,,,,,,,,,,,
C165,,,,,,,,,,,,,,,,,,,,,,,,,,,,,,,,,,,,,,,,,,,,,,,,,,,,,,,,,,,,,SB Vân Đồn|Ninh Bình,,,,,,,,,,,,,,,,,,,,,,,,,,,,,,,,,,,
C166,,,,,,,,,,,,,,,,,,,,,,,,,,,,,,,,,,,,,,,,,,,,,,,,,,,,,,,,,,Sân bay Nội Bài,,,,,,,,,,,,,,,,,,,,,,,,,,,,,,,,,,,,,,
C167,,,,,,,,,,,,,,,,,,,,,,,,,,,,,,,,,,,,,,,,,,,,,,sân bay Nội Bài,Hà Nội-Hoàn Kiếm -Hàng Chiếu,,,Hà Nội-Hoàn Kiếm-Hàng Chiếu|Hà Giang-Khách sạn Jasmine Phương Thiện,,,,Hà Nội-Khách sạn Kingly,Hà Nội|Huế-Khách sạn SunShine3,,Hội An-Khách sạn Backpacker,,,,Đà Nẵng|Hà Nội-Khách sạn Kingly,Bv Nhi Trung ương,,,,,,,,,,,,,,,,,,,,,,,,,,,,,,,,,,
C168,,,,,,,,,,,,,,,,,,,,,,,,,,,,,,,,,,,,,,,,,,,,,,,,,,,,,,,,,,,,,,,,,,,,,,,,,,,,,,,,,,,,,,,,,,,,,,,,
C169,,,,,,,,,,,,,,,,,,,,,,,,,,,,,,,,,,,,,,,,,,,,,,,,,,,,,,,,,,,,,,,,,,,,,,,,,,,,,,,,,,,,,,,,,,,,,,,,
C170,,,,,,,,,,,,,,,,,,,,,,,,,,,,,,,,,,,,,,,,,,,,,,,,,,,,Hà Nội,Ninh Bình – Kim Sơn – Định Hóa,Ninh Bình – Kim Sơn – Định Hóa,Ninh Bình – Kim Sơn – Định Hóa,Ninh Bình – Kim Sơn – Định Hóa,Ninh Bình – Kim Sơn – Định Hóa,Ninh Bình – Kim Sơn|Hà Nội – Đống Đa – Phương Đình – BV Bạch Mai,Hà Nội – Đống Đa – Phương Đình – BV Bạch Mai,Hà Nội – Đống Đa – Phương Đình – BV Bạch Mai|Hà Nội – Hoàng Mai – Giáp Bát|Ninh Bình – Kim Sơn – Định Hóa,Ninh Bình – Kim Sơn – Định Hóa|Ninh Bình – Kim Sơn – Phát Diệm,Ninh Bình – Kim Sơn – Phát Diệm,Ninh Bình – Kim Sơn – Phát Diệm,,,,,,,,,,,,,,,,,,,,,,,,,,,,,,,,,
C171,,,,,,,,,,,,,,,,,,,,,,,,,,,,,,,,,,,,,,,,,,,,,,,,,,,SB Tân Sơn Nhất,,,,,,,,,,,,,,,,,,,,,,,,,,,,,,,,,,,,,,,,,,,,,
C172,,,,,,,,,,,,,,,,,,,,,,,,,,,,,,,,,,,,,,,,,,,,,,,,,,,,,,,,,,,,Lai Châu – thị xã Lai Châu - Tân Phong,Lai Châu – thị xã Lai Châu - Tân Phong,Lai Châu –  Lai Châu - Tân Phong | Hà Nội – Kim Chung,,,,,,,,,,,,,,,,,,,,,,,,,,,,,,,,,,
C173,,,,,,,,,,,,,,,,,,,,,,,,,,,,,,,,,,,,,,,,,,,,,,,,,,,,,,,,,,,,,,,Hà Nội- Thạch Thất,,,,,,,,,,,,,,,,,,,,,,,,,,,,,,,,,
C174,,,,,,,,,,,,,,,,,,,,,,,,,,,,,,,,,,,,,,,,,,,,,,,,,,,,,,,,,,,,,,,,,,Hà Nội,,,,,,,,,,,,,,,,,,,,,,,,,,,,,,
C175,,,,,,,,,,,,,,,,,,,,,,,,,,,,,,,,,,,,,,,,,,,,,,,,,,,,,,,,,,,,,,,,,Hà Nội – Ba Đình – Điện Bàn – BV Xanh Pôn,Hà Nội,,,,,,,,,,,,,,,,,,,,,,,,,,,,,,
C175.1,,,,,,,,,,,,,,,,,,,,,,,,,,,,,,,,,,,,,,,,,,,,,,,,,,,,,,,,,,,,,,,,,Hà Nội – Ba Đình – Điện Bàn – BV Xanh Pôn,Hà Nội,,,,,,,,,,,,,,,,,,,,,,,,,,,,,,
C175.2,,,,,,,,,,,,,,,,,,,,,,,,,,,,,,,,,,,,,,,,,,,,,,,,,,,,,,,,,,,,,,,,,Hà Nội – Ba Đình – Điện Bàn – BV Xanh Pôn,Hà Nội,,,,,,,,,,,,,,,,,,,,,,,,,,,,,,
C175.3,,,,,,,,,,,,,,,,,,,,,,,,,,,,,,,,,,,,,,,,,,,,,,,,,,,,,,,,,,,,,,,,,,Hà Nội,,,,,,,,,,,,,,,,,,,,,,,,,,,,,,
C176,,,,,,,,,,,,,,,,,,,,,,,,,,,,,,,,,,,,,,,,,,,,,,,,,Nghệ An – Diễn Châu – Diễn Vạn,Nghệ An – Diễn Châu – Diễn Vạn,Hà Nội – Đống Đa – Phương Đình – BV Bạch Mai,,,,,,,,,,,,,,,Hà Nội,,,,,,,,,,,,,,,,,,,,,,,,,,,,,,
C177,,,,,,,,,,,,,,,,,,,,,,,,,,,,,,,,,,,,,,,,,,,,,,,,,,,,,,,,,,,,,,,,,,,,,,,,,,,,,,,,,,,,,,,,,,,,,,,,
C178,,,,,,,,,,,,,,,,,,,,,,,,,,,,,,,,,,,,,,,,,,,,,,,,,,,,,,,,,,,,,,,,,,,Thái Nguyên – huyện Đại Từ - Bệnh viện đa khoa Đại Từ,,,,,,,,,,,,,,,,,,,,,,,,,,,,,
C179,,,,,,,,,,,,,,,,,,,,,,,,,,,,,,,,,,,,,,,,,,,,,,,,,,,,,,,,Thanh Hóa – Thị xã Bỉm Sơn,Thanh Hóa – Thị xã Bỉm Sơn,Thanh Hóa – Thị xã Bỉm Sơn,Thanh Hóa – Thị xã Bỉm Sơn,Thanh Hóa – Thị xã Bỉm Sơn,Thanh Hóa – Thị xã Bỉm Sơn,Thanh Hóa – Thị xã Bỉm Sơn,Thanh Hóa – Thị xã Bỉm Sơn,Thanh Hóa – Thị xã Bỉm Sơn,Thanh Hóa – Thị xã Bỉm Sơn,Hà Nội – Đông Anh – BV Nhiệt Đới Trung Ương,,,,,,,,,,,,,,,,,,,,,,,,,,,,,,
C180,,,,,,,,,,,,,,,,,,,,,,,,,,,,,,,,,,,,,,,,,,,,,,,,,,,,,,,,,,Sân bay Nội Bài| Ninh Bình – Nho Quan – Quỳnh Lưu – Lữ đoàn 241,,,,,,,,,,,,,,,,,,,,,,,,,,,,,,,,,,,,,,
C181,,,,,,,,,,,,,,,,,,,,,,,,,,,,,,,,,,,,,,,,,,,,,,,,,,,,,,,,,,,,,,,,,,,,,,,,,,,,,,,,,,,,,,,,,,,,,,,,
C182,,,,,,,,,,,,,,,,,,,,,,,,,,,,,,,,,,,,,,,,,,,,,,,,,,,,,,,,,,,,,,,,,,,,,,,,,,,,,,,,,,,,,,,,,,,,,,,,
C183,,,,,,,,,,,,,,,,,,,,,,,,,,,,,,,,,,,,,,,,,,,,,,,,,,,Hà Nội  – Hai Bà Trưng – Nguyễn Du – Lê Duẩn – 231, Hà Nội – Cầu Giấy – Trung Hoà– Hoàng Đạo Thúy – Tòa nhà 34T, Hà Nội – Cầu Giấy – Trung Hoà– Hoàng Đạo Thúy – Tòa nhà 34T,Hà Nội – Lý Thường Kiệt – 79 ,Hà Nội - Thanh Xuân - Trung tâm Hương Sen | Hà Nội  – Hai Bà Trưng – Nguyễn Du – Lê Duẩn – 231 | Hà Nội - Ngọc Hà – ngách 158/124 – số 9  ,Hà Nội – Thanh Xuân - Trung tâm Hương Sen | Hà Nội – Đống Đa - Trung tâm Hương Sen  | Hà Nội - Phòng khám Iccare | Hà Nội - Ba Đình - Ngọc Hà - 182,Hà Nội – Thanh Xuân - Trung tâm Hương Sen | Hà Nội – Đống Đa - Trung tâm Hương Sen  | Hà Nội - Phòng khám Iccare | Hà Nội - Ba Đình - Ngọc Hà - 182,Hà Nội – Khách sạn Sheraton,Hà Nội – Thanh Xuân - Trung tâm Hương Sen | Hà Nội – Đống Đa - Trung tâm Hương Sen  | Hà Nội - Phòng khám Iccare | Hà Nội - Ba Đình - Ngọc Hà - 182,Hà Nội – Thanh Xuân - Trung tâm Hương Sen | Hà Nội – Đống Đa - Trung tâm Hương Sen  | Hà Nội - Phòng khám Iccare | Hà Nội - Ba Đình - Ngọc Hà - 182,Hà Nội – Thanh Xuân - Trung tâm Hương Sen | Hà Nội – Đống Đa - Trung tâm Hương Sen  | Hà Nội - Phòng khám Iccare | Hà Nội - Ba Đình - Ngọc Hà - 182,Hà Nội – Thanh Xuân - Trung tâm Hương Sen | Hà Nội – Đống Đa - Trung tâm Hương Sen  | Hà Nội - Phòng khám Iccare | Hà Nội - Ba Đình - Ngọc Hà - 182,Hà Nội -  Bệnh viện đa khoa Y học cổ truyền,,,,,,,,,,,,,,,,,,,,,,,,,,,,,,,,,
C184,,,,,,,,,,,,,,,,,,,,,,,,,,,,,,,,,,,,,,,,,,,,,,,,,,,,,,,,BV Bạch Mai,,,,,,,,,Hà Nội – Đống Đa – BV Bạch Mai,Hà Nội – Đông Anh – BVNĐTƯ ,,,,,,,,,,,,,,,,,,,,,,,,,,,,,,
C185,,,,,,,,,,,,,,,,,,,,,,,,,,,,,,,,,,,,,,,,,,,,,,,,,,,,,BV Bạch Mai,BV Bạch Mai,,,BV Bạch Mai,,,,,,,,,Hà Nội-Đông Anh-BVNĐTƯ,,,,,,,,,,,,,,,,,,,,,,,,,,,,,,
C186,,,,,,,,,,,,,,,,,,,,,,,,,,,,,,,,,,,,,,,,,,,,,,,,SB Tân Sơn Nhất|HCM|Cần Thơ|Quảng Nam – TP.Hội An – P. Cẩm Châu|Huế,HCM|Cần Thơ|Quảng Nam – TP.Hội An – P. Cẩm Châu|Huế,HCM|Cần Thơ|Quảng Nam – TP.Hội An – P. Cẩm Châu|Huế,,HCM|Cần Thơ|Quảng Nam – TP.Hội An – P. Cẩm Châu|Huế,HCM|Cần Thơ|Quảng Nam – TP.Hội An – P. Cẩm Châu|Huế,Ninh Bình ,,,,,,,,,,,,,,,,,,,,,,,,,,,,,,,,,,,,,,,,,,
C187,,,,,,,,,,,,,,,,,,,,,,,,,,,,,,,,,,,,,,,,,,,,,,,,,,,SB Nội Bài,Hà Nội – Tây Hồ – P.Quảng An,Hà Nội – Tây Hồ – P.Quảng An,Hà Nội – Tây Hồ – P.Quảng An,Hà Nội – Tây Hồ – P.Quảng An,Hà Nội – Tây Hồ – P.Quảng An,Hà Nội – Tây Hồ – P.Quảng An,,,,,,,,,,,,,,,,,,,,,,,,,,,,,,,,,,,,,,,
C188,,,,,,,,,,,,,,,,,,,,,,,,,,,,,,,,,,,,,,,,,,,,,,,,,,,,,,,,,,,,,,,,,,Hà Nội- Đông Anh - Kim Chung - BVBNĐTƯ CS Đông Anh ,,,,,,,,,,,,,,,,,,,,,,,,,,,,,,
C189,,,,,,,,,,,,,,,,,,,,,,,,,,,,,,,,,,,,,,,,,,,,,,,,,,,,,,,,,,,,,,,,,,,,,,,,,,,,,,,,,,,,,,,,,,,,,,,,
C190,,,,,,,,,,,,,,,,,,,,,,,,,,,,,,,,,,,,,,,,,,,,,,,,,,,,,,,,,,,,,,,,,,,,,,,,,,,,,,,,,,,,,,,,,,,,,,,,
C191,,,,,,,,,,,,,,,,,,,,,,,,,,,,,,,,,,,,,,,,,,,,,,,,,,,,,,,,,,,,,,,,,,,,,,,,,,,,,,,,,,,,,,,,,,,,,,,,
C192,,,,,,,,,,,,,,,,,,,,,,,,,,,,,,,,,,,,,,,,,,,,,,,,,,,,,,,,,,,,,,,,,,,,,,,,,,,,,,,,,,,,,,,,,,,,,,,,
C193,,,,,,,,,,,,,,,,,,,,,,,,,,,,,,,,,,,,,,,,,,,,,,,,,,,,,,,,,,,,,,,,,,,,,,,,,,,,,,,,,,,,,,,,,,,,,,,,
C194,,,,,,,,,,,,,,,,,,,,,,,,,,,,,,,,,,,,,,,,,,,,,,,,,,,,,,,,,,,,,,,,,,,,,,,,,,,,,,,,,,,,,,,,,,,,,,,,
C195,,,,,,,,,,,,,,,,,,,,,,,,,,,,,,,,,,,,,,,,,,,,,,,,,,,,,,,,,,,,,,,,,,,,,,,,,,,,,,,,,,,,,,,,,,,,,,,,
C196,,,,,,,,,,,,,,,,,,,,,,,,,,,,,,,,,,,,,,,,,,,,,,,,,,,,,,,,,,,,,,,,,,,,,,,,,,,,,,,,,,,,,,,,,,,,,,,,
C197,,,,,,,,,,,,,,,,,,,,,,,,,,,,,,,,,,,,,,,,,,,,,,,,,,,,,,,,,,,,,,,,,,,,,,,,,,,,,,,,,,,,,,,,,,,,,,,,
C198,,,,,,,,,,,,,,,,,,,,,,,,,,,,,,,,,,,,,,,,,,,,,,,,,,,,,,,,,,,,,,,,,,,,,,,,,,,,,,,,,,,,,,,,,,,,,,,,
C199,,,,,,,,,,,,,,,,,,,,,,,,,,,,,,,,,,,,,,,,,,,,,,,,,,,,,,,,,,,,,,,,,,,,,,,,,,,,,,,,,,,,,,,,,,,,,,,,
C200,,,,,,,,,,,,,,,,,,,,,,,,,,,,,,,,,,,,,,,,,,,,,,,,,,,,,,,,,,,,,,,,,,,,,,,,,,,,,,,,,,,,,,,,,,,,,,,,
C201,,,,,,,,,,,,,,,,,,,,,,,,,,,,,,,,,,,,,,,,,,,,,,,,,,,,,,,,,,,,,,,,,,,,,,,,,,,,,,,,,,,,,,,,,,,,,,,,
C202,,,,,,,,,,,,,,,,,,,,,,,,,,,,,,,,,,,,,,,,,,,,,,,,,,,,,,,,,,,,,,,,,,,,,,,,,,,,,,,,,,,,,,,,,,,,,,,,
C203,,,,,,,,,,,,,,,,,,,,,,,,,,,,,,,,,,,,,,,,,,,,,,,,,,,,,,,Sân bay Tân Sơn Nhất,,,,,,,,,,,,,,,,,,,,,,,,,,,,,,,,,,,,,,,,,
C204,,,,,,,,,,,,,,,,,,,,,,,,,,,,,,,,,,,,,,,,,,,,,,,,,,,,Czech – Prague | Thổ Nhĩ Kỳ – Istanbul,Thổ Nhĩ Kỳ – Istanbul | Hồ Chí Minh – Tân Sơn Nhất | Hồ Chí Minh – Quận 12 - Trường Quân sự Quân khu 7,Hồ Chí Minh – Quận 12 - Trường Quân sự Quân khu 7,Hồ Chí Minh – Quận 12 - Trường Quân sự Quân khu 7,Hồ Chí Minh – Quận 12 - Trường Quân sự Quân khu 7,Hồ Chí Minh – Quận 12 - Trường Quân sự Quân khu 7,Hồ Chí Minh – Quận 12 - Trường Quân sự Quân khu 7,Hồ Chí Minh – Quận 12 - Trường Quân sự Quân khu 7,Hồ Chí Minh – Quận 12 - Trường Quân sự Quân khu 7,Hồ Chí Minh – Quận 12 - Trường Quân sự Quân khu 7,Hồ Chí Minh – Quận 12 - Trường Quân sự Quân khu 7,Hồ Chí Minh – Quận 12 - Trường Quân sự Quân khu 7,Hồ Chí Minh – Quận 12 - Trường Quân sự Quân khu 7,Hồ Chí Minh - Bệnh viện Covid-19 Cần Giờ ,,,,,,,,,,,,,,,,,,,,,,,,,,,,,,,
C205,,,,,,,,,,,,,,,,,,,,,,,,,,,,,,,,,,,,,,,,,,,,,,,,,,,,,,,,,,,,,,,,,,,,,,,,,,,,,,,,,,,,,,,,,,,,,,,,
C206,,,,,,,,,,,,,,,,,,,,,,,,,,,,,,,,,,,,,,,,,,,,,,,,,,,,,,,,,,,,,Hồ Chí Minh – Củ Chi - Trường Thiếu sinh quân,Hồ Chí Minh – Củ Chi - Trường Thiếu sinh quân,Hồ Chí Minh – Củ Chi - Trường Thiếu sinh quân,Hồ Chí Minh – Củ Chi - Trường Thiếu sinh quân, Hồ Chí Minh – Củ Chi – Bệnh viện dã chiến Củ Chi,,,,,,,,,,,,,,,,,,,,,,,,,,,,,,,
C207,,,,,,,,,,,,,,,,,,,,,,,,,,,,,,,,,,,,,,,,,,,,,,,,,,,,,,,,,,,,Hồ Chí Minh – Trung tâm Y tế quận 2,Hồ Chí Minh - Củ Chi - Trường Thiếu sinh quân,,,,,Hồ Chí Minh – Củ Chi – Bệnh viện Dã chiến Củ Chi,,,,,,,,,,,,,,,,,,,,,,,,,,,,,,
C208,,,,,,,,,,,,,,,,,,,,,,,,,,,,,,,,,,,,,,,,,,,,,,,,,,,,,,,,,,,,,,,,,,,,,,,,,,,,,,,,,,,,,,,,,,,,,,,,
C209,,,,,,,,,,,,,,,,,,,,,,,,,,,,,,,,,,,,,,,,,,,,,,,,,,,,,,,,Hà Nội -  Công ty Xăng dầu Khu vực I,Hà Nội -  Công ty Xăng dầu Khu vực I,Hà Nội -  Công ty Xăng dầu Khu vực I,Hà Nội -  Công ty Xăng dầu Khu vực I,Hà Nội -  Công ty Xăng dầu Khu vực I,Hà Nội -  Công ty Xăng dầu Khu vực I,Hà Nội -  Công ty Xăng dầu Khu vực I,Hà Nội,Hà Nội,Hà Nội,Hà Nội,Hà Nội,Hà Nội,Hà Nội,Hà Nội,,,,,,,,,,,,,,,,,,,,,,,,,,
C210,,,,,,,,,,,,,,,,,,,,,,,,,,,,,,,,,,,,,,,,,,,,,,,,,,,,,,,,,,,,,,,,,,,,,,,,,,,,,,,,,,,,,,,,,,,,,,,,
C211,,,,,,,,,,,,,,,,,,,,,,,,,,,,,,,,,,,,,,,,,,,,,,,,,,,,,,,,,,Sân bay Nội Bài|Ninh Bình – Nho Quan – Quỳnh Lưu – Lữ đoàn 241,,,,,,,,,,,,Ninh Bình – Nam Thành – Tuệ Tĩnh – BV Đa Khoa Tỉnh Ninh Bình,,,,,,,,,,,,,,,,,,,,,,,,,,
C212,,,,,,,,,,,,,,,,,,,,,,,,,,,,,,,,,,,,,,,,,,,,,,,,,,,,,,,,,,,,,,,,,Sân bay Nội Bài|Vĩnh Phúc – Vĩnh Yên – Liên Bảo – Trường Văn hóa nghệ thuật Vĩnh Phúc,,,,,Hà Nội – Đông Anh – BV Nhiệt Đới Trung Ương,,,,,,,,,,,,,,,,,,,,,,,,,,
C213,,,,,,,,,,,,,,,,,,,,,,,,,,,,,,,,,,,,,,,,,,,,,,,,,,,,,,,,,,,,,,,,,,,,,Hà Nội – Đông Anh – BV Nhiệt Đới Trung Ương,,,,,,,,,,,,,,,,,,,,,,,,,,,
C214,,,,,,,,,,,,,,,,,,,,,,,,,,,,,,,,,,,,,,,,,,,,,,,,,,,,,,,,,,,,,,,,,,,,,,,,,,,,,,,,,,,,,,,,,,,,,,,,
C215,,,,,,,,,,,,,,,,,,,,,,,,,,,,,,,,,,,,,,,,,,,,,,,,,,,,,,,,,,,,,,,,,,,,,,,,,,,,,,,,,,,,,,,,,,,,,,,,
C216,,,,,,,,,,,,,,,,,,,,,,,,,,,,,,,,,,,,,,,,,,,,,,,,,,,,,,,,,,,,,Đức| Hà Nội – Hòa Lạc – Láng – Đại học FPT,Hà Nội – Hòa Lạc – Láng – Đại học FPT,Hà Nội – Hòa Lạc – Láng – Đại học FPT,Hà Nội – Hòa Lạc – Láng – Đại học FPT,Hà Nội – Hòa Lạc – Láng – Đại học FPT,Hà Nội – Hòa Lạc – Láng – Đại học FPT,Hà Nội – Hòa Lạc – Láng – Đại học FPT,Hà Nội – Hòa Lạc – Láng – Đại học FPT,Hà Nội – Đông Anh – BV Nhiệt Đới Trung Ương,,,,,,,,,,,,,,,,,,,,,,,,,,,
C217,,,,,,,,,,,,,,,,,,,,,,,,,,,,,,,,,,,,,,,,,,,,,,,,,,,,,,,,,,,,,,,Nhật Bản| Hà Nội – Hòa Lạc – Láng – Đại học FPT,Hà Nội – Hòa Lạc – Láng – Đại học FPT,Hà Nội – Hòa Lạc – Láng – Đại học FPT,Hà Nội – Hòa Lạc – Láng – Đại học FPT,Hà Nội – Hòa Lạc – Láng – Đại học FPT,Hà Nội – Hòa Lạc – Láng – Đại học FPT,Hà Nội – Đông Anh – BV Nhiệt Đới Trung Ương,,,,,,,,,,,,,,,,,,,,,,,,,,,
C218,,,,,,,,,,,,,,,,,,,,,,,,,,,,,,,,,,,,,,,,,,,,,,,,,,,,,,,,,,,,,,,Hà Nội – Hòa Lạc – Láng – Đại học FPT,Hà Nội – Hòa Lạc – Láng – Đại học FPT,Hà Nội – Hòa Lạc – Láng – Đại học FPT,Hà Nội – Hòa Lạc – Láng – Đại học FPT,Hà Nội – Hòa Lạc – Láng – Đại học FPT,Hà Nội – Hòa Lạc – Láng – Đại học FPT,Hà Nội – Đông Anh – BV Nhiệt Đới Trung Ương,,,,,,,,,,,,,,,,,,,,,,,,,,,
C219,,,,,,,,,,,,,,,,,,,,,,,,,,,,,,,,,,,,,,,,,,,,,,,,,,,,,,BV Bạch Mai | Hưng Yên,,,,,,,,,,,,,,,,,,,,,,,,,,,,,,,,,,,,,,,,,,
C220,,,,,,,,,,,,,,,,,,,,,,,,,,,,,,,,,,,,,,,,,,,,,,,,,,,,,,,Sân bay Nội Bài,,,,,,,,,,,,,,,,,,,,,,,,,,,,,,,,,,,,,,,,,
C221,,,,,,,,,,,,,,,,,,,,,,,,,,,,,,,,,,,,,,,,,,,,,,,,,,,,,,,,,,,,,,Sân bay Nội Bài,,,,,,,,,,,,,,,,,,,,,,,,,,,,,,,,,,
C222,,,,,,,,,,,,,,,,,,,,,,,,,,,,,,,,,,,,,,,,,,,,,,,,,,,,,,,,,,,,,,,,,,,,,,,,,,,,,,,,,,,,,,,,,,,,,,,,
C223,,,,,,,,,,,,,,,,,,,,,,,,,,,,,,,,,,,,,,,,,,,,,,,,,Hà Nội – Đống Đa - Bệnh viện Bạch Mai ,Hà Nội – Đống Đa - Bệnh viện Bạch Mai ,Hà Nội – Đống Đa - Bệnh viện Bạch Mai ,Hà Nội – Đống Đa - Bệnh viện Bạch Mai ,Hà Nội – Đống Đa - Bệnh viện Bạch Mai ,Hà Nội – Đống Đa - Bệnh viện Bạch Mai ,Hà Nội – Đống Đa - Bệnh viện Bạch Mai ,Hà Nội – Đống Đa - Bệnh viện Bạch Mai ,Hà Nội – Đống Đa - Bệnh viện Bạch Mai ,Hà Nội – Đống Đa - Bệnh viện Bạch Mai ,Hà Nội – Đống Đa - Bệnh viện Bạch Mai ,Hà Nội – Đống Đa - Bệnh viện Bạch Mai ,Hà Nội – Đống Đa - Bệnh viện Bạch Mai ,Hà Nội – Đống Đa - Bệnh viện Bạch Mai ,,Hà Nội – Đống Đa – Bệnh viện Bệnh Nhiệt đới Trung ương cơ sở 2,,,,,,,,,,,,,,,,,,,,,,,,,,,,,,,,
C224,,,,,,,,,,,,,,,,,,,,,,,,,,,,,,,,,,,,,,,,,,,,,,,,,,,,,,Đồng Nai – Vĩnh Cửu – Thạnh Phú ,Đồng Nai – Vĩnh Cửu – Thạnh Phú ,Đồng Nai – Vĩnh Cửu – Thạnh Phú ,Đồng Nai – Vĩnh Cửu – Thạnh Phú ,,,,,,,,Hồ Chí Minh – Hóc Môn – Trường HUFLIT,,,,,,,,,,,,,,,,,,,,,,,,,,,,,,,
C225,,,,,,,,,,,,,,,,,,,,,,,,,,,,,,,,,,,,,,,,,,,,,,,,,,,,,,,,,,,,,,,Sân Bay Nội Bài|Hà Nội – Hòa Lạc – Láng – Đại học FPT,,,,,,,,,,,,,,,,,,,,,,,,,,,,,,,,,
C226,,,,,,,,,,,,,,,,,,,,,,,,,,,,,,,,,,,,,,,,,,,,,,,,,,,,,,,,,,,,,,,,,Vĩnh Phúc – Vĩnh Yên – Liên Bảo – Trường Văn hóa nghệ thuật Vĩnh Phúc,,,,,,,,,,,,,,,,,,,,,,,,,,,,,,,
C227,,,,,,,,,,,,,,,,,,,,,,,,,,,,,,,,,,,,,,,,,,,,,,,,,,,,,,Hà Nội – Long Biên – Đức Giang,Hà Nội - Long Biên – Đức Giang,Hà Nội - Long Biên – Đức Giang,Hà Nội - Long Biên – Đức Giang,Hà Nội - Long Biên – Đức Giang,Hà Nội - Long Biên – Đức Giang,Hà Nội - Long Biên – Đức Giang,Hà Nội - Long Biên – Đức Giang,Hà Nội - Long Biên – Đức Giang,Hà Nội - Long Biên – Đức Giang,,,,,,,,,,,,,,,,,,,,,,,,,,,,,,,,,
C228,,,,,,,,,,,,,,,,,,,,,,,,,,,,,,,,,,,,,,,,,,,,,,,,,,,,,,,,,,,,,,,,,,,,,,,,,,,,,,,,,,,,,,,,,,,,,,,,
C229,,,,,,,,,,,,,,,,,,,,,,,,,,,,,,,,,,,,,,,,,,,,,,,,,,,,,,,,,,,,,,,,,,,,,,,,,,,,,,,,,,,,,,,,,,,,,,,,
C230,,,,,,,,,,,,,,,,,,,,,,,,,,,,,,,,,,,,,,,,,,,,,,,,,,,,,,,,,,Ninh Bình – Nho Quan – Quỳnh Lưu – Lữ đoàn 241,,,,,,,,,,,,,,Ninh Bình – Nam Thành – Tuệ Tĩnh – BV Đa Khoa Tỉnh Ninh Bình,,,,,,,,,,,,,,,,,,,,,,,,
C231,,,,,,,,,,,,,,,,,,,,,,,,,,,,,,,,,,,,,,,,,,,,,,,,,,,,,,,,,,,,,,,,,Hà Nội|Hà Nam,,,,,,,Hà Nam – Phủ Lý – Lương Khánh Thiện – BV Đa khoa tỉnh Hà Nam,,,,,,,,,,,,,,,,,,,,,,,,
C232,,,,,,,,,,,,,,,,,,,,,,,,,,,,,,,,,,,,,,,,,,,,,,,,,,,,,,,,,,,,,,,,,Sân bay Nội Bài|Vĩnh Phúc,,,,,,,Hà Nội – Đống Đa – Phương Đình – BV Nhiệt đới TƯ cơ sở 2,,,,,,,,,,,,,,,,,,,,,,,,
C233,,,,,,,,,,,,,,,,,,,,,,,,,,,,,,,,,,,,,,,,,,,,,,,,,,,,,,,,,,,,,,,,,Sân bay Nội Bài|Vĩnh Phúc,,,,,,,Hà Nội – Đống Đa – Phương Đình – BV Nhiệt đới TƯ cơ sở 2,,,,,,,,,,,,,,,,,,,,,,,,
C234,,,,,,,,,,,,,,,,,,,,,,,,,,,,,,,,,,,,,,,,,,,,,,,,,,,,,,,,Sân bay Tân Sơn Nhất| HCM- Quận 12 - Phường Trung Mỹ Tây- Trường Quân sự Quân khu 7,,,,,,,,,,,,Hồ Chí Minh – Cần Giờ,,,,,,,,,,,,,,,,,,,,,,,,,,,,
C235,,,,,,,,,,,,,,,,,,,,,,,,,,,,,,,,,,,,,,,,,,,,,,,,,,,,Hồ Chí Minh- Quận 2- Phường Thảo Điền- Quán Bar Buddha,,,,,,,,,,,,,,,,,,,,,,,,,,,,,,,,,,,,,,,,,,,,
C236,,,,,,,,,,,,,,,,,,,,,,,,,,,,,,,,,,,,,,,,,,,,,,,,,,,,Hồ Chí Minh- Quận 2- Phường Thảo Điền- Quán Bar Buddha,,,,,,,,,,,Hồ Chí Minh- Quận 2- Thảo Điền | Hồ Chí Minh- Quận 9- Hiệp Phú- Học viện Chính trị,,,,,,,Hồ Chí Minh - Củ Chi- Nhuận Đức,,,,,,,,,,,,,,,,,,,,,,,,,,
C237,,,,,,,,,,,,,,,,,,,,,,,,,,,,,Hồ Chí Minh- Quận 5- Phường 9 – An Dương Vương,Sân bay Tân Sơn Nhất|Sân bay Nội Bài|Hà Nội- Hoàng Kiếm - Hàng Mã - 59 Hàng Cót- Tú Linh Legend,Hà Nội- Hoàng Kiếm - Hàng Mã - 59 Hàng Cót- Tú Linh Legend|Ninh Bình - Tân Thành - Lương Văn Tuỵ,,,,,,,Ninh Bình - Tân Thành - Lương Văn Tuỵ,,Ninh Bình - Tân Thành - Lương Văn Tuỵ,Ninh Bình - Tân Thành - Lương Văn Tuỵ,Ninh Bình - Tân Thành - Lương Văn Tuỵ,Ninh Bình - Tân Thành - Lương Văn Tuỵ,Ninh Bình - Tân Thành - Lương Văn Tuỵ,Ninh Bình - Tân Thành - Lương Văn Tuỵ,Ninh Bình - Tân Thành - Lương Văn Tuỵ,Ninh Bình - Tân Thành - Lương Văn Tuỵ,Ninh Bình - Tân Thành - Lương Văn Tuỵ,Ninh Bình - Tân Thành - Lương Văn Tuỵ,Ninh Bình - Tân Thành - Lương Văn Tuỵ,Ninh Bình - Tân Thành - Lương Văn Tuỵ,Ninh Bình - Tân Thành - Lương Văn Tuỵ,Ninh Bình - Tân Thành - Lương Văn Tuỵ,Ninh Bình - Tân Thành - Lương Văn Tuỵ,Ninh Bình - Tân Thành - Lương Văn Tuỵ,Ninh Bình - Tân Thành - Lương Văn Tuỵ,Ninh Bình - Tân Thành - Lương Văn Tuỵ,Ninh Bình - Tân Thành - Lương Văn Tuỵ,Ninh Bình - Tân Thành - Lương Văn Tuỵ|Hà Nội – Hai Bà Trưng – Vũ Hữu Lợi – Khách sạn Canary Hà Nội,Hà Nội – Long Biên – Bồ Đề – Lâm Du,,,,Hà Nội – Đống Đa – Bệnh Viện Việt Pháp Hà Nội,,,,Hà Nội – Đống Đa – Bệnh Viện Việt Pháp Hà Nội,,Hà Nội – Long Biên – Đức Giang – BV Đức Giang| Hà Nội – Cầu Giấy – Yên Hòa – Viện Huyết học Truyền máu TƯ,,,,,,,,,,,,,,,,,,,,,,,,,,
C238,,,,,,,,,,,,,,,,,,,,,,,,,,,,,,,,,,,,,,,,,,,,,,,,,,,,,,,Thái Lan – Bangkok,Quảng Bình – Minh Hóa – Dân Hóa – Cửa khẩu Cha Lo,Quảng Bình – Đồng Hới – Đức Ninh,Hà Tĩnh – Thạch Hà – Thạch Long,Hà Tĩnh – Thạch Hà – Thạch Long,,,,,,,,,,,,,,Hà Tĩnh – Hương Sơn – BV Đa khoa Cầu Treo,,,,,,,,,,,,,,,,,,,,,,,
C239,,,,,,,,,,,,,,,,,,,,,,,,,,,,,,,,,,,,,,,,,,,,,,,,,Hà Nội – Đống Đa – Phương Đình – 78 Giải Phóng- BV Bạch Mai|Vĩnh Phúc – Dương Tam – An Hòa,,,,,,,Hà Nội – Đống Đa – Phương Đình – 78 Giải Phóng- BV Bạch Mai,Vĩnh Phúc – Tam Dương – An Hòa,Vĩnh Phúc – Tam Dương – An Hòa,Vĩnh Phúc – Tam Dương – An Hòa,Vĩnh Phúc – Tam Dương – An Hòa,Vĩnh Phúc – Tam Dương – An Hòa,Vĩnh Phúc – Tam Dương – An Hòa,Vĩnh Phúc – Tam Dương – An Hòa,Vĩnh Phúc – Tam Dương – An Hòa,Vĩnh Phúc – Tam Dương – An Hòa,Vĩnh Phúc – Vĩnh Yên – Đồng Tâm – Bệnh Viện Đa khoa Vĩnh Phúc,,,,,,,Hà Nội – Đống Đa – Phương Đình – BV Nhiệt đới TƯ cơ sở 2,,,,,,,,,,,,,,,,,,,,,,,
C240,,,,,,,,,,,,,,,,,,,,,,,,,,,,,,,,,,,,,,,,,,,,,,,,,,,,,,,,,,Sân bay Nội Bài|Ninh Bình – Nho Quan – Quỳnh Lưu ,Ninh Bình – Nho Quan – Quỳnh Lưu ,Ninh Bình – Nho Quan – Quỳnh Lưu ,Ninh Bình – Nho Quan – Quỳnh Lưu ,Ninh Bình – Nho Quan – Quỳnh Lưu ,Ninh Bình – Nho Quan – Quỳnh Lưu ,Ninh Bình – Nho Quan – Quỳnh Lưu ,Ninh Bình – Nho Quan – Quỳnh Lưu ,Ninh Bình – Nho Quan – Quỳnh Lưu ,Ninh Bình – Nho Quan – Quỳnh Lưu ,Ninh Bình – Nho Quan – Quỳnh Lưu ,Ninh Bình – Nho Quan – Quỳnh Lưu ,Ninh Bình – Nho Quan – Quỳnh Lưu ,,,Ninh Bình – Nam Thành – Tuệ Tĩnh – BV Đa Khoa Tỉnh Ninh Bình,,,,,,,,,,,,,,,,,,,,,,,
C241,,,,,,,,,,,,,,,,,,,,,,,,,,,,,,,,,,,,,,,,,,,,,,,,,,,,,,,,,,Sân bay Cần Thơ|Bạc Liêu – Giá Rai – Ấp 2 – Trường quân sự Bạc Liêu,Bạc Liêu – Giá Rai – Ấp 2 – Trường quân sự Bạc Liêu,Bạc Liêu – Giá Rai – Ấp 2 – Trường quân sự Bạc Liêu,Bạc Liêu – Giá Rai – Ấp 2 – Trường quân sự Bạc Liêu,Bạc Liêu – Giá Rai – Ấp 2 – Trường quân sự Bạc Liêu,Bạc Liêu – Giá Rai – Ấp 2 – Trường quân sự Bạc Liêu,Bạc Liêu – Giá Rai – Ấp 2 – Trường quân sự Bạc Liêu,Bạc Liêu – Giá Rai – Ấp 2 – Trường quân sự Bạc Liêu,Bạc Liêu – Giá Rai – Ấp 2 – Trường quân sự Bạc Liêu,Bạc Liêu – Giá Rai – Ấp 2 – Trường quân sự Bạc Liêu,Bạc Liêu – Giá Rai – Ấp 2 – Trường quân sự Bạc Liêu,Bạc Liêu – Giá Rai – Ấp 2 – Trường quân sự Bạc Liêu,Thành phố Bạc Liêu – Phường 3- Nguyễn Huệ – BV Đa khoa tỉnh Bạc Liêu,,,Thành phố Bạc Liêu – Phường 3- Nguyễn Huệ – BV Đa khoa tỉnh Bạc Liêu,,,,,,,,,,,,,,,,,,,,,,,
C242,,,,,,,,,,,,,,,,,,,,,,,,,,,,,,,,,,,,,,,,,,,,,,,,,,,,,,,,,,,,,,,Sân Bay Nội Bài|Hà Nội – huyện Thạch Thất – KTX Đại học FPT,,,,,,,,,,,Hà Nội – Đống Đa – BV Nhiệt đới TƯ cơ sở 2,,,,,,,,,,,,,,,,,,,,,,
C243,,,,,,,,,,,,,,,,,,,,,,,,,,,,,,,,,,,,,,,,,,,,,,,,,,Hà Nội- Đống Đa- Giải Phóng- BV Bạch Mai|  Hà Nội - Đống Đa- Giải Phóng- Hàng cơm số 31| Hà Nội- Mê Linh- Quốc lộ 23- Chợ hoa Mê Linh| Hà Nội - Mê Linh - Hạ Lôi,,"Hà Nội- Tây Hồ - Quảng An - Chợ Quảng Bá, Âu Cơ | Hà Nội- Mê Linh- Hạ Lôi",Hà Nội- Mê Linh - Quốc lộ 23- Chợ hoa Mê Linh| Hà Nội- Mê Linh - Hạ Lôi,,,Hà Nội- Mê Linh - Quốc lộ 23- Chợ hoa Mê Linh| Hà Nội- Mê Linh - Hạ Lôi,,,,"Hà Nội- Tây Hồ - Quảng An - Chợ Quảng Bá, Âu Cơ | Hà Nội- Mê Linh- Hạ Lôi","Hà Nội- Tây Hồ - Quảng An - Chợ Quảng Bá, Âu Cơ | Hà Nội- Mê Linh- Hạ Lôi| Hà Nội- Mê Linh- Quốc lộ 23- Chợ hoa Mê Linh",,"Hà Nội- Tây Hồ - Quảng An - Chợ Quảng Bá, Âu Cơ | Hà Nội- Mê Linh- Hạ Lôi","Hà Nội- Tây Hồ - Quảng An - Chợ Quảng Bá, Âu Cơ | Hà Nội- Mê Linh- Hạ Lôi| Hà Nội- Mê Linh- Quốc lộ 23- Chợ hoa Mê Linh","Hà Nội- Tây Hồ - Quảng An - Chợ Quảng Bá, Âu Cơ | Hà Nội- Mê Linh- Hạ Lôi| Hà Nội- Mê Linh- Quốc lộ 23- Chợ hoa Mê Linh",,,Hà Nội- Mê Linh - Quốc lộ 23- Chợ hoa Mê Linh| Hà Nội- Mê Linh - Hạ Lôi,,,,,Vĩnh Phúc- Phúc Yên- Xuân Thuỷ- BV ĐK Phúc Yên | Hà Nội- Ba Đình - Láng Thượng- BV Phụ sản Hà Nội | Hà Nội- Mê Linh - Hạ Lôi,Hà Nội- Ba Đình - Láng Thượng - BV Phụ sản Hà Nội| Hà Nội- Mê Linh- Hạ Lôi,Hà Nội - Đống Đa - Phương Đình- Bệnh viện Bệnh Nhiệt đới Trung ương cơ sở 2,,,,,,,,,,,,,,,,,,,,,
C244,,,,,,,,,,,,,,,,,,,,,,,,,,,,,,,,,,,,,,,,,,,,,,,,,,,,,,,,,,,,,,,Nga| Sân bay Nội Bài| Hà Nội – Thạch Thất – KTX Đại học FPT,Hà Nội – Thạch Thất – KTX Đại học FPT,Hà Nội – Thạch Thất – KTX Đại học FPT,Hà Nội – Thạch Thất – KTX Đại học FPT,Hà Nội – Thạch Thất – KTX Đại học FPT,Hà Nội – Thạch Thất – KTX Đại học FPT,Hà Nội – Thạch Thất – KTX Đại học FPT,Hà Nội – Thạch Thất – KTX Đại học FPT,,Hà Nội – Thạch Thất – KTX Đại học FPT,Hà Nội – Thạch Thất – KTX Đại học FPT,Hà Nội – Thạch Thất – KTX Đại học FPT,Hà Nội – Đông Anh – BV Nhiệt Đới Trung Ương,,,,,,,,,,,,,,,,,,,,,
C245,,,,,,,,,,,,,,,,,,,,,,,,,,,,,,,,,,,,,,,,,,,,,,,,,,,,,,,,,,,,,,,Sân Bay Nội Bài,,,,,,,,,,,,,,,,,,,,,,,,,,,,,,,,,
C246,,,,,,,,,,,,,,,,,,,,,,,,,,,,,,,,,,,,,,,,,,,,,,,,,,,,,,,,,,,,,,,Hà Nội- Sân bay Nội Bài | Hà Nội - Thạch Thất - Đại học FPT,,,,,,,,,,,,Hà Nội – Đống Đa – BV Nhiệt đới TƯ cơ sở 2,,,,,,,,,,,,,,,,,,,,,
C247,,,,,,,,,,,,,,,,,,,,,,,,,,,,,,,,,,,,,,,,,,,,,,,,,,,,,,,,,,,,,,,,,,,,,,,,,,,,,,,,,,,,,,,,,,,,,,,,
C248,,,,,,,,,,,,,,,,,,,,,,,,,,,,,,,,,,,,,,,,,,,,,,,,,,,,,,,,,,,,,Hồ Chí Minh – Tân Bình – Sân bay Tân Sơn Nhất | Hồ Chí Minh – Thủ Đức – Linh Trung – Ký túc xá Đại học Quốc Gia TP.Hồ Chí Minh,,,,,,,,,,,,,Hồ Chí Minh – Củ Chi – Tân Hội – BV Dã chiến Củ Chi,,,,,,,,,,,,,,,,,,,,,,
C249,,,,,,,,,,,,,,,,,,,,,,,,,,,,,,,,,,,,,,,,,,,,,,,,,,,,,,,,,,,,Hà Nội – Đống Đa – Phương Mai – Bệnh viện Bệnh nhiệt đới Trung Ương cơ sở 2,,,,,,,,,,,,,,,,,,,,,,,,,,,,,,,,,,,,
C250,,,,,,,,,,,,,,,,,,,,,,,,,,,,,,,,,,,,,,,,,,,,,,,,,,,,,,,,,,,,,,,,,,,,,,,Hà Nội – Mê Linh – Hà Lôi,Hà Nội – Mê Linh – Hà Lôi,Hà Nội – Mê Linh – Hà Lôi,Hà Nội – Mê Linh – Hà Lôi,Hà Nội – Mê Linh – Hà Lôi,Hà Nội – Mê Linh – Hà Lôi,Hà Nội - Đống Đa - Phương Đình- Bệnh viện Bệnh Nhiệt đới Trung ương cơ sở 2,,,,,,,,,,,,,,,,,,,
C251,,,,,,,,,,,,,,,,,,,,,,,,,,,,,,,,,,,,,,,,,,,,,,,,,,,,,,,,,,Hà Nam – Phủ Lý – Lương Khánh Thiện – BV Đa khoa tỉnh Hà Nam,Hà Nam – Phủ Lý – Lương Khánh Thiện – BV Đa khoa tỉnh Hà Nam,Hà Nam – Phủ Lý – Lương Khánh Thiện – BV Đa khoa tỉnh Hà Nam,Hà Nam – Phủ Lý – Lương Khánh Thiện – BV Đa khoa tỉnh Hà Nam,Hà Nam – Phủ Lý – Lương Khánh Thiện – BV Đa khoa tỉnh Hà Nam,Hà Nam – Phủ Lý – Lương Khánh Thiện – BV Đa khoa tỉnh Hà Nam,Hà Nam – Phủ Lý – Lương Khánh Thiện – BV Đa khoa tỉnh Hà Nam,Hà Nam – Phủ Lý – Lương Khánh Thiện – BV Đa khoa tỉnh Hà Nam,Hà Nam – Phủ Lý – Lương Khánh Thiện – BV Đa khoa tỉnh Hà Nam,Hà Nam – Phủ Lý – Lương Khánh Thiện – BV Đa khoa tỉnh Hà Nam,Hà Nam – Phủ Lý – Lương Khánh Thiện – BV Đa khoa tỉnh Hà Nam,Hà Nam – Phủ Lý – Lương Khánh Thiện – BV Đa khoa tỉnh Hà Nam,Hà Nam – Phủ Lý – Lương Khánh Thiện – BV Đa khoa tỉnh Hà Nam,Hà Nam – Phủ Lý – Lương Khánh Thiện – BV Đa khoa tỉnh Hà Nam,Hà Nam – Phủ Lý – Lương Khánh Thiện – BV Đa khoa tỉnh Hà Nam,Hà Nam – Phủ Lý – Lương Khánh Thiện – BV Đa khoa tỉnh Hà Nam,Hà Nam – Phủ Lý – Lương Khánh Thiện – BV Đa khoa tỉnh Hà Nam,Hà Nam – Phủ Lý – Lương Khánh Thiện – BV Đa khoa tỉnh Hà Nam,Hà Nam – Phủ Lý – Lương Khánh Thiện – BV Đa khoa tỉnh Hà Nam,Hà Nam – Phủ Lý – Lương Khánh Thiện – BV Đa khoa tỉnh Hà Nam,,,,,,,,,,,,,,,,,,,
C252,,,,,,,,,,,,,,,,,,,,,,,,,,,,,,,,,,,,,,,,,,,,,,,,,,,,,,,,,,,,,,,,,,,,,,,,,,,,,Campuchia| Tây Ninh – Cửa khẩu Mộc Bài| Tây Ninh – Hòa Thành – BV đa khoa tỉnh Tây Ninh,,,,,,,,,,,,,,,,,,,
C253,,,,,,,,,,,,,,,,,,,,,,,,,,,,,,,,,,,,,,,,,,,,,,,,,,,,,,,,,,,,,,,,,,,,,,,,,Hà Nội – Mê Linh – Hà Lôi,Hà Nội – Mê Linh – Hà Lôi,Hà Nội – Đông Anh – BV Nhiệt Đới Trung Ương,,,,,,,,,,,,,,,,,,,,,
C254,,,,,,,,,,,,,,,,,,,,,,,,,,,,,,,,,,,,,,,,,,,,,,,,,,,,,,,,,,,,,,,,,,,,,,,,,,,,,,Hà Nội-Mê Linh | Bệnh viện Thận Hà Nội,,,,,,,,,,,,,,,,,,
C255,,,,,,,,,,,,,,,,,,,,,,,,,,,,,,,,,,,,,,,,,,,,,,,,,,,,,,,,,,,,,,,,,Sân bay Nội Bài,,,,,,,,,,,,,,,,,,,,,,,,,,,,,,,
C256,,,,,,,,,,,,,,,,,,,,,,,,,,,,,,,,,,,,,,,,,,,,,,,,,,,,,,,,,,,,,,,,,Hà Nội – Sân bay Nội Bài | Vình Phúc – Vĩnh Yên - Trường Văn hóa Nghệ thuật tỉnh Vĩnh Phúc,,,,,,,,,,,,,,,,,,,,,,,,,,,,,,,
C257,,,,,,,,,,,,,,,,,,,,,,,,,,,,,,,,,,,,,,,,,,,,,,,,,,,,,,,,,,,,,,,,,,,,,,,,,,,,,,,Hà Nội - Đống Đa - Phương Đình- BV Nhiệt đới Trung ương cơ sở 2,,,,,,,,,,,,,,,,,
C258,,,,,,,,,,,,,,,,,,,,,,,,,,,,,,,,,,,,,,,,,,,,,,,,,,,,,,,,,,,,,,,,,,,,,,,,,,,,,,,,,,,,,,,,,,,,,,,,
C259,,,,,,,,,,,,,,,,,,,,,,,,,,,,,,,,,,,,,,,,,,,,,,,,,,,,,,,,,,,,,,,,,,,,,,,,,,,,,,Hà Nội – Mê Linh – Đại Thịnh - Trung tâm Y tế Mê Linh,Hà Nội – Thạch Thất,,,,,,,,,,,,,,,,,
C260,,,,,,,,,,,,,,,,,,,,,,,,,,,,,,,,,,,,,,,,,,,,,,,,,,,,,,,,,,,,,,,,,,,,,,,,,,,,,,,,Hà Nội- Đống Đa- Phương Đình- 78 Giải Phóng- BV Bệnh Nhiệt đới Trung ương cơ sở 2,,,,,,,,,,,,,,,,
C261,,,,,,,,,,,,,,,,,,,,,,,,,,,,,,,,,,,,,,,,,,,,,,,,,,,,,,,,,,,,,,,,,,,,,,,,,,,,,,,,Hà Nội – Mê Linh – Hạ Lôi,Hà Nội- Đống Đa- Phương Đình- 78 Giải Phóng- BV Bệnh Nhiệt đới Trung ương cơ sở 2,,,,,,,,,,,,,,,
C262,,,,,,,,,,,,,,,,,,,,,,,,,,,,,,,,,,,,,,,,,,,,,,,,,,,,,,,,,,,,,,Hà Nội – Mê Linh – Hạ Lôi,Hà Nội – Mê Linh – Hạ Lôi|Bắc Ninh – Yên Phong – Công ty Samsung,Hà Nội – Mê Linh – Hạ Lôi|Bắc Ninh – Yên Phong – Công ty Samsung,Hà Nội – Mê Linh – Hạ Lôi|Bắc Ninh – Yên Phong – Công ty Samsung,Hà Nội – Mê Linh – Hạ Lôi|Bắc Ninh – Yên Phong – Công ty Samsung,Hà Nội – Mê Linh – Hạ Lôi|Bắc Ninh – Yên Phong – Công ty Samsung,Hà Nội – Mê Linh – Hạ Lôi|Bắc Ninh – Yên Phong – Công ty Samsung,Hà Nội – Mê Linh – Hạ Lôi|Bắc Ninh – Yên Phong – Công ty Samsung,Hà Nội – Mê Linh – Hạ Lôi|Bắc Ninh – Yên Phong – Công ty Samsung,Hà Nội – Mê Linh – Hạ Lôi|Bắc Ninh – Yên Phong – Công ty Samsung,Hà Nội – Mê Linh – Hạ Lôi|Bắc Ninh – Yên Phong – Công ty Samsung,Hà Nội – Mê Linh – Hạ Lôi|Bắc Ninh – Yên Phong – Công ty Samsung,Hà Nội – Mê Linh – Hạ Lôi,Hà Nội – Mê Linh – Hạ Lôi,Hà Nội – Mê Linh – Hạ Lôi,Hà Nội – Mê Linh – Hạ Lôi,Hà Nội – Mê Linh – Hạ Lôi,Hà Nội- Đống Đa- Phương Đình- 78 Giải Phóng- BV Bệnh Nhiệt đới Trung ương cơ sở 2,,,,,,,,,,,,,,,,,
C263,,,,,,,,,,,,,,,,,,,,,,,,,,,,,,,,,,,,,,,,,,,,,,,,,,,,,,,,,,,,,,,Hà Nội – Mê Linh – Hạ Lôi,,,,,,,,,,,,,,,,,Hà Nội- Đống Đa- Phương Đình- 78 Giải Phóng- BV Bệnh Nhiệt đới Trung ương cơ sở 2,,,,,,,,,,,,,,,,
C264,,,,,,,,,,,,,,,,,,,,,,,,,,,,,,,,,,,,,,,,,,,,,,,,,,,,,,,,,,,,,,,,,,,,,,,,,,,,,,,,Hà Nội- Đống Đa- Phương Đình- 78 Giải Phóng- BV Bệnh Nhiệt đới Trung ương cơ sở 2,,,,,,,,,,,,,,,,
C265,,,,,,,,,,,,,,,,,,,,,,,,,,,,,,,,,,,,,,,,,,,,,,,,,,,,,,,,,,,,,Thái Lan | Việt Nam – Quảng Bình – Cửa Khẩu Cha Lo| Hà Tĩnh – Thạch Hà – khu cách ly tập trung Thạch Hà,,,,,,,,,,,,,,,,,,,,Hà Tĩnh – Hương Sơn – Tây Sơn – HA15 Bệnh viện Cầu Treo ,,,,,,,,,,,,,,,
C266,,,,,,,,,,,,,,,,,,,,,,,,,,,,,,,,,,,,,,,,,,,,,,Hà Nội – Đống Đa – Phương Đình – BV Bạch Mai – Khoa Phục Hồi Chức Năng,Hà Nội – Đống Đa – Phương Đình – BV Bạch Mai – Khoa Phục Hồi Chức Năng,Hà Nội – Đống Đa – Phương Đình – BV Bạch Mai – Khoa Phục Hồi Chức Năng,,,,,,,,,,,,,,,,,,,,Hà Nội – Thường Tín – Dũng Tiến,,,,,,,,,,,,,,,Hà Nội – Đống Đa – Phương Đình – BV Bệnh Nhiệt đới Trung ương cơ sở 2,,,,,,,,,,,,,
C267,,,,,,,,,,,,,,,,,,,,,,,,,,,,,,,,,,,,,,,,,,,,,,,,,,,,,,,,,,,,,,,,,,,,,,,,,,,,,Hà Nội ,,,,,,,Hà Nội – Đống Đa – Phương Mai – BV Bệnh nhiệt đới Trung ương cơ sở 2,,,,,,,,,,,,
C268,,,,,,,,,,,,,,,,,,,,,,,,,,,,,,,,,,,,,,,,,,,,,,,,,,,,,,,,,,,,,,,,,,,,,,,,,,,,,Hà Giang – Đồng Văn – Phòng khám đa khoa xã Phó Bảng| Hà Giang – Đồng Văn – BV Đa khoa huyện Đồng Văn,Hà Giang – Đồng Văn – BV Đa khoa huyện Đồng Văn,Hà Giang – Đồng Văn – BV Đa khoa huyện Đồng Văn,Hà Giang – Đồng Văn – BV Đa khoa huyện Đồng Văn,Hà Giang – Đồng Văn – BV Đa khoa huyện Đồng Văn,Hà Giang – Đồng Văn – BV Đa khoa huyện Đồng Văn,Hà Giang – Đồng Văn – BV Đa khoa huyện Đồng Văn,Hà Giang – Đồng Văn – BV Đa khoa huyện Đồng Văn,Hà Giang – Đồng Văn – BV Đa khoa huyện Đồng Văn,,,,,,,,,,,
C269,,,,,,,,,,,,,,,,,,,,,,,,,,,,,,,,,,,,,,,,,,,,,,,,,,,,,,,,,,,,,,,,,,,,,,,,,,,,,,,,,,,,,,Quảng Ninh – Sân bay Vân Đồn|Thái Bình – Đông Hưng – Đông Phong – trường Quân sự tỉnh Thái Bình|Thái Bình – P.Quang Trung – BV Đa khoa tỉnh Thái Bình,Thái Bình – P.Quang Trung – BV Đa khoa tỉnh Thái Bình,Hà Nội – Đông Anh – Kim Chung – Thôn Bầu – BV Nhiệt Đới Trung Ương,,,,,,,,
C270,,,,,,,,,,,,,,,,,,,,,,,,,,,,,,,,,,,,,,,,,,,,,,,,,,,,,,,,,,,,,,,,,,,,,,,,,,,,,,,,,,,,,,Quảng Ninh – Sân bay Vân Đồn|Thái Bình – Đông Hưng – Đông Phong – trường Quân sự tỉnh Thái Bình|Thái Bình – P.Quang Trung – BV Đa khoa tỉnh Thái Bình,Thái Bình – P.Quang Trung – BV Đa khoa tỉnh Thái Bình,Hà Nội – Đông Anh – Kim Chung – Thôn Bầu – BV Nhiệt Đới Trung Ương,,,,,,,,
C271,,,,,,,,,,,,,,,,,,,,,,,,,,,,,,,,,,,,,,,,,,,,,,,,,,,,,,,,,,,,,,,,,,,,,,,,,,,,,,,,,,,,,,,,,Hồ Chí Minh – Sân bay Tân Sơn Nhất|Hồ Chí Minh – Cần Giờ,,Hồ Chí Minh – Củ Chi – Đức Nhuận – BV Dã chiến Củ Chi,,,,,
C272,,,,,,,,,,,,,,,,,,,,,,,,,,,,,,,,,,,,,,,,,,,,,,,,,,,,,,,,,,,,,,,,,,,,,,,,,,,,,,,,,,,,,,,,,,,Sân Bay Cần Thơ|Bạc Liêu,Thành phố Bạc Liêu – Phường 3- Nguyễn Huệ – BV Đa khoa tỉnh Bạc Liêu,,,,
C273,,,,,,,,,,,,,,,,,,,,,,,,,,,,,,,,,,,,,,,,,,,,,,,,,,,,,,,,,,,,,,,,,,,,,,,,,,,,,,,,,,,,,,,,,,,Sân Bay Cần Thơ|Bạc Liêu,Thành phố Bạc Liêu – Phường 3- Nguyễn Huệ – BV Đa khoa tỉnh Bạc Liêu,,,,
C274,,,,,,,,,,,,,,,,,,,,,,,,,,,,,,,,,,,,,,,,,,,,,,,,,,,,,,,,,,,,,,,,,,,,,,,,,,,,,,,,,,,,,,,,,,,Sân Bay Cần Thơ|Bạc Liêu,Thành phố Bạc Liêu – Phường 3- Nguyễn Huệ – BV Đa khoa tỉnh Bạc Liêu,,,,
C275,,,,,,,,,,,,,,,,,,,,,,,,,,,,,,,,,,,,,,,,,,,,,,,,,,,,,,,,,,,,,,,,,,,,,,,,,,,,,,,,,,,,,,,,,,,Sân Bay Cần Thơ|Bạc Liêu,Thành phố Bạc Liêu – Phường 3- Nguyễn Huệ – BV Đa khoa tỉnh Bạc Liêu,,,,
C276,,,,,,,,,,,,,,,,,,,,,,,,,,,,,,,,,,,,,,,,,,,,,,,,,,,,,,,,,,,,,,,,,,,,,,,,,,,,,,,,,,,,,,,,,,,Sân Bay Cần Thơ|Bạc Liêu,Thành phố Bạc Liêu – Phường 3- Nguyễn Huệ – BV Đa khoa tỉnh Bạc Liêu,,,,
C277,,,,,,,,,,,,,,,,,,,,,,,,,,,,,,,,,,,,,,,,,,,,,,,,,,,,,,,,,,,,,,,,,,,,,,,,,,,,,,,,,,,,,,,,,,,Sân Bay Cần Thơ|Bạc Liêu,Thành phố Bạc Liêu – Phường 3- Nguyễn Huệ – BV Đa khoa tỉnh Bạc Liêu,,,,
C278,,,,,,,,,,,,,,,,,,,,,,,,,,,,,,,,,,,,,,,,,,,,,,,,,,,,,,,,,,,,,,,,,,,,,,,,,,,,,,,,,,,,,,,,,,,Sân Bay Cần Thơ|Bạc Liêu,Thành phố Bạc Liêu – Phường 3- Nguyễn Huệ – BV Đa khoa tỉnh Bạc Liêu,,,,
C279,,,,,,,,,,,,,,,,,,,,,,,,,,,,,,,,,,,,,,,,,,,,,,,,,,,,,,,,,,,,,,,,,,,,,,,,,,,,,,,,,,,,,,,,,,,Sân Bay Cần Thơ|Bạc Liêu,Thành phố Bạc Liêu – Phường 3- Nguyễn Huệ – BV Đa khoa tỉnh Bạc Liêu,,,,
C280,,,,,,,,,,,,,,,,,,,,,,,,,,,,,,,,,,,,,,,,,,,,,,,,,,,,,,,,,,,,,,,,,,,,,,,,,,,,,,,,,,,,,,,,,,,Sân Bay Cần Thơ|Bạc Liêu,Thành phố Bạc Liêu – Phường 3- Nguyễn Huệ – BV Đa khoa tỉnh Bạc Liêu,,,,
C281,,,,,,,,,,,,,,,,,,,,,,,,,,,,,,,,,,,,,,,,,,,,,,,,,,,,,,,,,,,,,,,,,,,,,,,,,,,,,,,,,,,,,,,,,,,Sân Bay Cần Thơ|Bạc Liêu,Thành phố Bạc Liêu – Phường 3- Nguyễn Huệ – BV Đa khoa tỉnh Bạc Liêu,,,,
C282,,,,,,,,,,,,,,,,,,,,,,,,,,,,,,,,,,,,,,,,,,,,,,,,,,,,,,,,,,,,,,,,,,,,,,,,,,,,,,,,,,,,,,,,,,,Sân Bay Cần Thơ|Bạc Liêu,Thành phố Bạc Liêu – Phường 3- Nguyễn Huệ – BV Đa khoa tỉnh Bạc Liêu,,,,
C283,,,,,,,,,,,,,,,,,,,,,,,,,,,,,,,,,,,,,,,,,,,,,,,,,,,,,,,,,,,,,,,,,,,,,,,,,,,,,,,,,,,,,,,,,,,Sân Bay Cần Thơ|Bạc Liêu,Thành phố Bạc Liêu – Phường 3- Nguyễn Huệ – BV Đa khoa tỉnh Bạc Liêu,,,,
C284,,,,,,,,,,,,,,,,,,,,,,,,,,,,,,,,,,,,,,,,,,,,,,,,,,,,,,,,,,,,,,,,,,,,,,,,,,,,,,,,,,,,,,,,,,,Sân Bay Cần Thơ|Bạc Liêu,Thành phố Bạc Liêu – Phường 3- Nguyễn Huệ – BV Đa khoa tỉnh Bạc Liêu,,,,
C285,,,,,,,,,,,,,,,,,,,,,,,,,,,,,,,,,,,,,,,,,,,,,,,,,,,,,,,,,,,,,,,,,,,,,,,,,,,,,,,,,,,,,,,,,,,Sân Bay Cần Thơ|Bạc Liêu,Thành phố Bạc Liêu – Phường 3- Nguyễn Huệ – BV Đa khoa tỉnh Bạc Liêu,,,,
C286,,,,,,,,,,,,,,,,,,,,,,,,,,,,,,,,,,,,,,,,,,,,,,,,,,,,,,,,,,,,,,,,,,,,,,,,,,,,,,,,,,,,,,,,,,,Sân Bay Cần Thơ|Bạc Liêu,Thành phố Bạc Liêu – Phường 3- Nguyễn Huệ – BV Đa khoa tỉnh Bạc Liêu,,,,
C287,,,,,,,,,,,,,,,,,,,,,,,,,,,,,,,,,,,,,,,,,,,,,,,,,,,,,,,,,,,,,,,,,,,,,,,,,,,,,,,,,,,,,,,,,,,Sân Bay Cần Thơ|Bạc Liêu,Thành phố Bạc Liêu – Phường 3- Nguyễn Huệ – BV Đa khoa tỉnh Bạc Liêu,,,,
C288,,,,,,,,,,,,,,,,,,,,,,,,,,,,,,,,,,,,,,,,,,,,,,,,,,,,,,,,,,,,,,,,,,,,,,,,,,,,,,,,,,,,,,,,,,,Sân Bay Cần Thơ|Bạc Liêu,Thành phố Bạc Liêu – Phường 3- Nguyễn Huệ – BV Đa khoa tỉnh Bạc Liêu,,,,
C289,,,,,,,,,,,,,,,,,,,,,,,,,,,,,,,,,,,,,,,,,,,,,,,,,,,,,,,,,,,,,,,,,,,,,,,,,,,,,,,,,,,,,,,,,,,,,Quảng Ninh – Sân Bay Vân Đồn|Thái Bình,,Thái Bình – Quang Trung – Lý Bôn – BV Đa khoa Thái Bình,
C290,,,,,,,,,,,,,,,,,,,,,,,,,,,,,,,,,,,,,,,,,,,,,,,,,,,,,,,,,,,,,,,,,,,,,,,,,,,,,,,,,,,,,,,,,,,,,Quảng Ninh – Sân Bay Vân Đồn|Thái Bình,,Thái Bình – Quang Trung – Lý Bôn – BV Đa khoa Thái Bình,
C291,,,,,,,,,,,,,,,,,,,,,,,,,,,,,,,,,,,,,,,,,,,,,,,,,,,,,,,,,,,,,,,,,,,,,,,,,,,,,,,,,,,,,,,,,,,,,Quảng Ninh – Sân Bay Vân Đồn|Thái Bình,,Thái Bình – Quang Trung – Lý Bôn – BV Đa khoa Thái Bình,
C292,,,,,,,,,,,,,,,,,,,,,,,,,,,,,,,,,,,,,,,,,,,,,,,,,,,,,,,,,,,,,,,,,,,,,,,,,,,,,,,,,,,,,,,,,,,,,Quảng Ninh – Sân Bay Vân Đồn|Thái Bình,,Thái Bình – Quang Trung – Lý Bôn – BV Đa khoa Thái Bình,
C293,,,,,,,,,,,,,,,,,,,,,,,,,,,,,,,,,,,,,,,,,,,,,,,,,,,,,,,,,,,,,,,,,,,,,,,,,,,,,,,,,,,,,,,,,,,,,Quảng Ninh – Sân Bay Vân Đồn|Thái Bình,,Thái Bình – Quang Trung – Lý Bôn – BV Đa khoa Thái Bình,
C294,,,,,,,,,,,,,,,,,,,,,,,,,,,,,,,,,,,,,,,,,,,,,,,,,,,,,,,,,,,,,,,,,,,,,,,,,,,,,,,,,,,,,,,,,,,,,Quảng Ninh – Sân Bay Vân Đồn|Thái Bình,,Thái Bình – Quang Trung – Lý Bôn – BV Đa khoa Thái Bình,
C295,,,,,,,,,,,,,,,,,,,,,,,,,,,,,,,,,,,,,,,,,,,,,,,,,,,,,,,,,,,,,,,,,,,,,,,,,,,,,,,,,,,,,,,,,,,,,Quảng Ninh – Sân Bay Vân Đồn|Thái Bình,,Thái Bình – Quang Trung – Lý Bôn – BV Đa khoa Thái Bình,
C296,,,,,,,,,,,,,,,,,,,,,,,,,,,,,,,,,,,,,,,,,,,,,,,,,,,,,,,,,,,,,,,,,,,,,,,,,,,,,,,,,,,,,,,,,,,,,Quảng Ninh – Sân Bay Vân Đồn|Thái Bình,,Thái Bình – Quang Trung – Lý Bôn – BV Đa khoa Thái Bình,
C297,,,,,,,,,,,,,,,,,,,,,,,,,,,,,,,,,,,,,,,,,,,,,,,,,,,,,,,,,,,,,,,,,,,,,,,,,,,,,,,,,,,,,,,,,,,,,Quảng Ninh – Sân Bay Vân Đồn|Thái Bình,,Thái Bình – Quang Trung – Lý Bôn – BV Đa khoa Thái Bình,
C298,,,,,,,,,,,,,,,,,,,,,,,,,,,,,,,,,,,,,,,,,,,,,,,,,,,,,,,,,,,,,,,,,,,,,,,,,,,,,,,,,,,,,,,,,,,,,Quảng Ninh – Sân Bay Vân Đồn|Thái Bình,,Thái Bình – Quang Trung – Lý Bôn – BV Đa khoa Thái Bình,
C299,,,,,,,,,,,,,,,,,,,,,,,,,,,,,,,,,,,,,,,,,,,,,,,,,,,,,,,,,,,,,,,,,,,,,,,,,,,,,,,,,,,,,,,,,,,,,Quảng Ninh – Sân Bay Vân Đồn|Thái Bình,,Thái Bình – Quang Trung – Lý Bôn – BV Đa khoa Thái Bình,
C300,,,,,,,,,,,,,,,,,,,,,,,,,,,,,,,,,,,,,,,,,,,,,,,,,,,,,,,,,,,,,,,,,,,,,,,,,,,,,,,,,,,,,,,,,,,,,Quảng Ninh – Sân Bay Vân Đồn|Thái Bình,,Thái Bình – Quang Trung – Lý Bôn – BV Đa khoa Thái Bình,
C301,,,,,,,,,,,,,,,,,,,,,,,,,,,,,,,,,,,,,,,,,,,,,,,,,,,,,,,,,,,,,,,,,,,,,,,,,,,,,,,,,,,,,,,,,,,,,Quảng Ninh – Sân Bay Vân Đồn|Thái Bình,,Thái Bình – Quang Trung – Lý Bôn – BV Đa khoa Thái Bình,
C302,,,,,,,,,,,,,,,,,,,,,,,,,,,,,,,,,,,,,,,,,,,,,,,,,,,,,,,,,,,,,,,,,,,,,,,,,,,,,,,,,,,,,,,,,,,,,Quảng Ninh – Sân Bay Vân Đồn|Thái Bình,,Thái Bình – Quang Trung – Lý Bôn – BV Đa khoa Thái Bình,
C303,,,,,,,,,,,,,,,,,,,,,,,,,,,,,,,,,,,,,,,,,,,,,,,,,,,,,,,,,,,,,,,,,,,,,,,,,,,,,,,,,,,,,,,,,,,,,Quảng Ninh – Sân Bay Vân Đồn|Thái Bình,,Thái Bình – Quang Trung – Lý Bôn – BV Đa khoa Thái Bình,
C304,,,,,,,,,,,,,,,,,,,,,,,,,,,,,,,,,,,,,,,,,,,,,,,,,,,,,,,,,,,,,,,,,,,,,,,,,,,,,,,,,,,,,,,,,,,,,Quảng Ninh – Sân Bay Vân Đồn|Thái Bình,,Thái Bình – Quang Trung – Lý Bôn – BV Đa khoa Thái Bình,
C305,,,,,,,,,,,,,,,,,,,,,,,,,,,,,,,,,,,,,,,,,,,,,,,,,,,,,,,,,,,,,,,,,,,,,,,,,,,,,,,,,,,,,,,,,,,,,Quảng Ninh – Sân Bay Vân Đồn|Thái Bình,,Thái Bình – Quang Trung – Lý Bôn – BV Đa khoa Thái Bình,
C306,,,,,,,,,,,,,,,,,,,,,,,,,,,,,,,,,,,,,,,,,,,,,,,,,,,,,,,,,,,,,,,,,,,,,,,,,,,,,,,,,,,,,,,,,,,,,Quảng Ninh – Sân Bay Vân Đồn|Thái Bình,,Thái Bình – Quang Trung – Lý Bôn – BV Đa khoa Thái Bình,
C307,,,,,,,,,,,,,,,,,,,,,,,,,,,,,,,,,,,,,,,,,,,,,,,,,,,,,,,,,,,,,,,,,,,,,,,,,,,,,,,,,,,,,,,,,,,,,Quảng Ninh – Sân Bay Vân Đồn|Thái Bình,,Thái Bình – Quang Trung – Lý Bôn – BV Đa khoa Thái Bình,
C308,,,,,,,,,,,,,,,,,,,,,,,,,,,,,,,,,,,,,,,,,,,,,,,,,,,,,,,,,,,,,,,,,,,,,,,,,,,,,,,,,,,,,,,,,,,,,Quảng Ninh – Sân Bay Vân Đồn|Thái Bình,,Thái Bình – Quang Trung – Lý Bôn – BV Đa khoa Thái Bình,
C309,,,,,,,,,,,,,,,,,,,,,,,,,,,,,,,,,,,,,,,,,,,,,,,,,,,,,,,,,,,,,,,,,,,,,,,,,,,,,,,,,,,,,,,,,,,,,Quảng Ninh – Sân Bay Vân Đồn|Thái Bình,,Thái Bình – Quang Trung – Lý Bôn – BV Đa khoa Thái Bình,
C310,,,,,,,,,,,,,,,,,,,,,,,,,,,,,,,,,,,,,,,,,,,,,,,,,,,,,,,,,,,,,,,,,,,,,,,,,,,,,,,,,,,,,,,,,,,,,Quảng Ninh – Sân Bay Vân Đồn|Thái Bình,,Thái Bình – Quang Trung – Lý Bôn – BV Đa khoa Thái Bình,
C311,,,,,,,,,,,,,,,,,,,,,,,,,,,,,,,,,,,,,,,,,,,,,,,,,,,,,,,,,,,,,,,,,,,,,,,,,,,,,,,,,,,,,,,,,,,,,Quảng Ninh – Sân Bay Vân Đồn|Thái Bình,,Thái Bình – Quang Trung – Lý Bôn – BV Đa khoa Thái Bình,
C312,,,,,,,,,,,,,,,,,,,,,,,,,,,,,,,,,,,,,,,,,,,,,,,,,,,,,,,,,,,,,,,,,,,,,,,,,,,,,,,,,,,,,,,,,,,,,Quảng Ninh – Sân Bay Vân Đồn|Quảng Ninh,,Quảng Ninh – Bệnh viện Số 2 tỉnh Quảng Ninh,
C313,,,,,,,,,,,,,,,,,,,,,,,,,,,,,,,,,,,,,,,,,,,,,,,,,,,,,,,,,,,,,,,,,,,,,,,,,,,,,,,,,,,,,,,,,,,Sân Bay Cần Thơ|Bạc Liêu,,,,Thành phố Bạc Liêu – Phường 3- Nguyễn Huệ – BV Đa khoa tỉnh Bạc Liêu,
C314,,,,,,,,,,,,,,,,,,,,,,,,,,,,,,,,,,,,,,,,,,,,,,,,,,,,,,,,,,,,,,,,,,,,,,,,,,,,,,,,,,,,,,,,,,,,,Quảng Ninh – Sân Bay Vân Đồn|Hải Dương – Tp Chí Linh – Cộng Hòa,,,Hải Dương – Thanh Bình – Nguyễn Lương Bằng – BV Nhiệt đới Hải Dương
C315,,,,,,,,,,,,,,,,,,,,,,,,,,,,,,,,,,,,,,,,,,,,,,,,,,,,,,,,,,,,,,,,,,,,,,,,,,,,,,,,,,,,,,,,,,Tây Ninh – Tân Châu – Tân Thành – Tân Đông,Tây Ninh – Gò Dầu – Cẩm Giang,,,,,Tây Ninh – Hòa Thạnh – BV Đa khoa tỉnh Tây Ninh
C316,,,,,,,,,,,,,,,,,,,,,,,,,,,,,,,,,,,,,,,,,,,,,,,,,,,,,,,,,,,,,,,,,,,,,,,,,,,,,,,,,,,,,,,,,,,,,,Cần Thơ – Sân Bay Cần Thơ|Đồng Tháp – Tp Cao Lãnh – Trường quân sự tỉnh Đồng Tháp,,Đồng Tháp – Sa Đéc – P. 2 – BV Đa khoa Sa Đéc
C317,,,,,,,,,,,,,,,,,,,,,,,,,,,,,,,,,,,,,,,,,,,,,,,,,,,,,,,,,,,,,,,,,,,,,,,,,,,,,,,,,,,,,,,,,,,,,Quảng Ninh – Sân Bay Vân Đồn|Thái Bình,,,Thái Bình – Quang Trung – Lý Bôn – BV Đa khoa Thái Bình
C318,,,,,,,,,,,,,,,,,,,,,,,,,,,,,,,,,,,,,,,,,,,,,,,,,,,,,,,,,,,,,,,,,,,,,,,,,,,,,,,,,,,,,,,,,,,,,Quảng Ninh – Sân Bay Vân Đồn|Thái Bình,,,Thái Bình – Quang Trung – Lý Bôn – BV Đa khoa Thái Bình
